{
 "kind": "fusiontables#sqlresponse",
 "columns": [
  "geometry"
 ],
 "rows": [
  [
   {
    "geometry": {
     "type": "Polygon",
     "coordinates": [
      [
       [
        -102.250942303,
        21.8628217595,
        0.0
       ],
       [
        -102.251675766,
        21.8628172686,
        0.0
       ],
       [
        -102.251629688,
        21.863119075,
        0.0
       ],
       [
        -102.251036815,
        21.8631058709,
        0.0
       ],
       [
        -102.250942303,
        21.8628217595,
        0.0
       ]
      ]
     ]
    }
   }
  ],
  [
   {
    "geometry": {
     "type": "Polygon",
     "coordinates": [
      [
       [
        -102.253045605,
        21.867106456,
        0.0
       ],
       [
        -102.253382797,
        21.8681936912,
        0.0
       ],
       [
        -102.253209272,
        21.8682225718,
        0.0
       ],
       [
        -102.252881498,
        21.8682317689,
        0.0
       ],
       [
        -102.25252807,
        21.8680805423,
        0.0
       ],
       [
        -102.252472652,
        21.8679949608,
        0.0
       ],
       [
        -102.252396864,
        21.8677542391,
        0.0
       ],
       [
        -102.252322182,
        21.8673140356,
        0.0
       ],
       [
        -102.252630736,
        21.867220927,
        0.0
       ],
       [
        -102.253045605,
        21.867106456,
        0.0
       ]
      ]
     ]
    }
   }
  ],
  [
   {
    "geometry": {
     "type": "Polygon",
     "coordinates": [
      [
       [
        -102.258879898,
        21.8632776593,
        0.0
       ],
       [
        -102.258083866,
        21.8634961263,
        0.0
       ],
       [
        -102.257892153,
        21.8628398567,
        0.0
       ],
       [
        -102.258734669,
        21.8626091397,
        0.0
       ],
       [
        -102.258802018,
        21.8629206105,
        0.0
       ],
       [
        -102.258349692,
        21.8630441417,
        0.0
       ],
       [
        -102.258325441,
        21.8629762224,
        0.0
       ],
       [
        -102.258278805,
        21.8629885499,
        0.0
       ],
       [
        -102.25824414,
        21.8629999647,
        0.0
       ],
       [
        -102.258302731,
        21.8631969737,
        0.0
       ],
       [
        -102.258337509,
        21.8631894248,
        0.0
       ],
       [
        -102.258387307,
        21.8631774519,
        0.0
       ],
       [
        -102.258371078,
        21.8631133387,
        0.0
       ],
       [
        -102.258816284,
        21.8629910118,
        0.0
       ],
       [
        -102.258879898,
        21.8632776593,
        0.0
       ]
      ]
     ]
    }
   }
  ],
  [
   {
    "geometry": {
     "type": "Polygon",
     "coordinates": [
      [
       [
        -102.258294862,
        21.8654228423,
        0.0
       ],
       [
        -102.25810666,
        21.865633796,
        0.0
       ],
       [
        -102.2572547,
        21.8651938343,
        0.0
       ],
       [
        -102.257680962,
        21.8644702681,
        0.0
       ],
       [
        -102.258654241,
        21.8649671054,
        0.0
       ],
       [
        -102.258583542,
        21.8651023778,
        0.0
       ],
       [
        -102.258493198,
        21.8652097041,
        0.0
       ],
       [
        -102.257873787,
        21.8648794716,
        0.0
       ],
       [
        -102.257935959,
        21.8647759638,
        0.0
       ],
       [
        -102.257905291,
        21.8647581236,
        0.0
       ],
       [
        -102.25786891,
        21.8647382391,
        0.0
       ],
       [
        -102.257595289,
        21.8651947882,
        0.0
       ],
       [
        -102.25762961,
        21.865213577,
        0.0
       ],
       [
        -102.257670407,
        21.8652359103,
        0.0
       ],
       [
        -102.257740356,
        21.8651289752,
        0.0
       ],
       [
        -102.258294862,
        21.8654228423,
        0.0
       ]
      ]
     ]
    }
   }
  ],
  [
   {
    "geometry": {
     "type": "Polygon",
     "coordinates": [
      [
       [
        -102.263963331,
        21.8777100557,
        0.0
       ],
       [
        -102.26376937,
        21.8777693975,
        0.0
       ],
       [
        -102.263533079,
        21.8778849367,
        0.0
       ],
       [
        -102.263355815,
        21.8780060702,
        0.0
       ],
       [
        -102.262138446,
        21.8788391421,
        0.0
       ],
       [
        -102.262093561,
        21.878856671,
        0.0
       ],
       [
        -102.262065855,
        21.8788611948,
        0.0
       ],
       [
        -102.262037367,
        21.8788598901,
        0.0
       ],
       [
        -102.262007179,
        21.8788544034,
        0.0
       ],
       [
        -102.259735073,
        21.8772079062,
        0.0
       ],
       [
        -102.257574654,
        21.8756591743,
        0.0
       ],
       [
        -102.259029365,
        21.8742215657,
        0.0
       ],
       [
        -102.259108282,
        21.8741803772,
        0.0
       ],
       [
        -102.259199753,
        21.874163684,
        0.0
       ],
       [
        -102.25929293,
        21.8741713068,
        0.0
       ],
       [
        -102.259381341,
        21.8742011147,
        0.0
       ],
       [
        -102.259977577,
        21.8747154486,
        0.0
       ],
       [
        -102.260119625,
        21.8748377745,
        0.0
       ],
       [
        -102.260231048,
        21.8749169362,
        0.0
       ],
       [
        -102.260344105,
        21.8749854623,
        0.0
       ],
       [
        -102.26048048,
        21.8750467174,
        0.0
       ],
       [
        -102.260572968,
        21.8750823844,
        0.0
       ],
       [
        -102.261679907,
        21.8754073131,
        0.0
       ],
       [
        -102.262267941,
        21.8755640707,
        0.0
       ],
       [
        -102.263106269,
        21.875813371,
        0.0
       ],
       [
        -102.263360735,
        21.875888245,
        0.0
       ],
       [
        -102.263515846,
        21.875925479,
        0.0
       ],
       [
        -102.263624206,
        21.8759406092,
        0.0
       ],
       [
        -102.263664658,
        21.8759548171,
        0.0
       ],
       [
        -102.263724315,
        21.8759996026,
        0.0
       ],
       [
        -102.263746754,
        21.8760383408,
        0.0
       ],
       [
        -102.263797609,
        21.8761743111,
        0.0
       ],
       [
        -102.263915812,
        21.876707248,
        0.0
       ],
       [
        -102.26392974,
        21.8767886838,
        0.0
       ],
       [
        -102.263928181,
        21.8768753417,
        0.0
       ],
       [
        -102.263886418,
        21.8771997802,
        0.0
       ],
       [
        -102.263910923,
        21.8775405785,
        0.0
       ],
       [
        -102.263963331,
        21.8777100557,
        0.0
       ]
      ]
     ]
    }
   }
  ],
  [
   {
    "geometry": {
     "type": "Polygon",
     "coordinates": [
      [
       [
        -102.269061003,
        21.8558220092,
        0.0
       ],
       [
        -102.267968238,
        21.8560983912,
        0.0
       ],
       [
        -102.267874245,
        21.8557669412,
        0.0
       ],
       [
        -102.268959261,
        21.8554952549,
        0.0
       ],
       [
        -102.269259258,
        21.8554242237,
        0.0
       ],
       [
        -102.269256414,
        21.8557734985,
        0.0
       ],
       [
        -102.269061003,
        21.8558220092,
        0.0
       ]
      ]
     ]
    }
   }
  ],
  [
   {
    "geometry": {
     "type": "Polygon",
     "coordinates": [
      [
       [
        -102.265456627,
        21.8572223636,
        0.0
       ],
       [
        -102.266332089,
        21.8570073989,
        0.0
       ],
       [
        -102.266555153,
        21.8577618208,
        0.0
       ],
       [
        -102.266588275,
        21.857891406,
        0.0
       ],
       [
        -102.266598388,
        21.8579309694,
        0.0
       ],
       [
        -102.266616191,
        21.8580804474,
        0.0
       ],
       [
        -102.26661806,
        21.8582537235,
        0.0
       ],
       [
        -102.266628866,
        21.8590431303,
        0.0
       ],
       [
        -102.265744953,
        21.8590245489,
        0.0
       ],
       [
        -102.265038981,
        21.8590162955,
        0.0
       ],
       [
        -102.26504459,
        21.8585953918,
        0.0
       ],
       [
        -102.26504538,
        21.8583641309,
        0.0
       ],
       [
        -102.26491911,
        21.8578871254,
        0.0
       ],
       [
        -102.264785306,
        21.8573877275,
        0.0
       ],
       [
        -102.265456627,
        21.8572223636,
        0.0
       ]
      ]
     ]
    }
   }
  ],
  [
   {
    "geometry": {
     "type": "Polygon",
     "coordinates": [
      [
       [
        -102.259669156,
        21.8546911958,
        0.0
       ],
       [
        -102.2603173,
        21.8545226258,
        0.0
       ],
       [
        -102.260405532,
        21.8548330826,
        0.0
       ],
       [
        -102.260532023,
        21.8552784829,
        0.0
       ],
       [
        -102.259707105,
        21.855477491,
        0.0
       ],
       [
        -102.258996389,
        21.8556514247,
        0.0
       ],
       [
        -102.258796192,
        21.8549109007,
        0.0
       ],
       [
        -102.259669156,
        21.8546911958,
        0.0
       ]
      ]
     ]
    }
   }
  ],
  [
   {
    "geometry": {
     "type": "Polygon",
     "coordinates": [
      [
       [
        -102.248898276,
        21.8682371339,
        0.0
       ],
       [
        -102.248436802,
        21.8678986772,
        0.0
       ],
       [
        -102.248435354,
        21.867882201,
        0.0
       ],
       [
        -102.248451446,
        21.8678709533,
        0.0
       ],
       [
        -102.249173475,
        21.8677738516,
        0.0
       ],
       [
        -102.249706756,
        21.867706762,
        0.0
       ],
       [
        -102.249912321,
        21.8684810644,
        0.0
       ],
       [
        -102.249484514,
        21.8686651719,
        0.0
       ],
       [
        -102.248898276,
        21.8682371339,
        0.0
       ]
      ]
     ]
    }
   }
  ],
  [
   {
    "geometry": {
     "type": "Polygon",
     "coordinates": [
      [
       [
        -102.245453434,
        21.8659941824,
        0.0
       ],
       [
        -102.24529546,
        21.8660857406,
        0.0
       ],
       [
        -102.245179925,
        21.866147732,
        0.0
       ],
       [
        -102.245171384,
        21.8661386412,
        0.0
       ],
       [
        -102.245299304,
        21.8658092124,
        0.0
       ],
       [
        -102.245628463,
        21.8650031881,
        0.0
       ],
       [
        -102.24564706,
        21.8650034991,
        0.0
       ],
       [
        -102.246251816,
        21.8654364189,
        0.0
       ],
       [
        -102.246043484,
        21.865616404,
        0.0
       ],
       [
        -102.245832119,
        21.8657722953,
        0.0
       ],
       [
        -102.245673454,
        21.8658740454,
        0.0
       ],
       [
        -102.245453434,
        21.8659941824,
        0.0
       ]
      ]
     ]
    }
   }
  ],
  [
   {
    "geometry": {
     "type": "Polygon",
     "coordinates": [
      [
       [
        -102.265110383,
        21.8551143268,
        0.0
       ],
       [
        -102.265100141,
        21.8550802971,
        0.0
       ],
       [
        -102.265088052,
        21.8550479292,
        0.0
       ],
       [
        -102.26418847,
        21.8552648398,
        0.0
       ],
       [
        -102.26409563,
        21.8549193058,
        0.0
       ],
       [
        -102.265028034,
        21.8546966109,
        0.0
       ],
       [
        -102.265638074,
        21.8545476859,
        0.0
       ],
       [
        -102.265958162,
        21.8557157057,
        0.0
       ],
       [
        -102.26537204,
        21.8558491944,
        0.0
       ],
       [
        -102.264421063,
        21.8560803692,
        0.0
       ],
       [
        -102.264324218,
        21.8557528322,
        0.0
       ],
       [
        -102.265249571,
        21.8555314137,
        0.0
       ],
       [
        -102.265236063,
        21.8554914213,
        0.0
       ],
       [
        -102.265225982,
        21.8554489291,
        0.0
       ],
       [
        -102.264309949,
        21.8556586851,
        0.0
       ],
       [
        -102.264216373,
        21.8553303793,
        0.0
       ],
       [
        -102.265110383,
        21.8551143268,
        0.0
       ]
      ]
     ]
    }
   }
  ],
  [
   {
    "geometry": {
     "type": "Polygon",
     "coordinates": [
      [
       [
        -102.269043109,
        21.8562698414,
        0.0
       ],
       [
        -102.268076867,
        21.8565145463,
        0.0
       ],
       [
        -102.267979621,
        21.8561680784,
        0.0
       ],
       [
        -102.268947721,
        21.8559305527,
        0.0
       ],
       [
        -102.269267823,
        21.855849627,
        0.0
       ],
       [
        -102.269257079,
        21.8562164137,
        0.0
       ],
       [
        -102.269043109,
        21.8562698414,
        0.0
       ]
      ]
     ]
    }
   }
  ],
  [
   {
    "geometry": {
     "type": "Polygon",
     "coordinates": [
      [
       [
        -102.254072591,
        21.8679023976,
        0.0
       ],
       [
        -102.253730388,
        21.8680294611,
        0.0
       ],
       [
        -102.253357933,
        21.8668530695,
        0.0
       ],
       [
        -102.25412112,
        21.8666480535,
        0.0
       ],
       [
        -102.254439147,
        21.867706678,
        0.0
       ],
       [
        -102.254346878,
        21.8677670989,
        0.0
       ],
       [
        -102.254258508,
        21.8678222742,
        0.0
       ],
       [
        -102.254172207,
        21.867868635,
        0.0
       ],
       [
        -102.253913642,
        21.8670844341,
        0.0
       ],
       [
        -102.253976634,
        21.8670660118,
        0.0
       ],
       [
        -102.253963958,
        21.8670339348,
        0.0
       ],
       [
        -102.253953356,
        21.8669930434,
        0.0
       ],
       [
        -102.253841817,
        21.8670217868,
        0.0
       ],
       [
        -102.253733985,
        21.8670495752,
        0.0
       ],
       [
        -102.253748418,
        21.8670887612,
        0.0
       ],
       [
        -102.253759331,
        21.8671137264,
        0.0
       ],
       [
        -102.253806907,
        21.8671074401,
        0.0
       ],
       [
        -102.254072591,
        21.8679023976,
        0.0
       ]
      ]
     ]
    }
   }
  ],
  [
   {
    "geometry": {
     "type": "Polygon",
     "coordinates": [
      [
       [
        -102.256291229,
        21.8643035588,
        0.0
       ],
       [
        -102.256204959,
        21.8643291736,
        0.0
       ],
       [
        -102.256168733,
        21.8643386597,
        0.0
       ],
       [
        -102.256007949,
        21.8638150104,
        0.0
       ],
       [
        -102.256075373,
        21.8637977271,
        0.0
       ],
       [
        -102.256137861,
        21.8637803642,
        0.0
       ],
       [
        -102.256291229,
        21.8643035588,
        0.0
       ]
      ]
     ]
    }
   }
  ],
  [
   {
    "geometry": {
     "type": "Polygon",
     "coordinates": [
      [
       [
        -102.272771356,
        21.8769255752,
        0.0
       ],
       [
        -102.27223941,
        21.8769257888,
        0.0
       ],
       [
        -102.272242557,
        21.8765060734,
        0.0
       ],
       [
        -102.272619632,
        21.8765123211,
        0.0
       ],
       [
        -102.272620061,
        21.8764897601,
        0.0
       ],
       [
        -102.272620576,
        21.8764626868,
        0.0
       ],
       [
        -102.272238581,
        21.8764608712,
        0.0
       ],
       [
        -102.27224416,
        21.8761675777,
        0.0
       ],
       [
        -102.27261423,
        21.8761710856,
        0.0
       ],
       [
        -102.272616829,
        21.8761511842,
        0.0
       ],
       [
        -102.272617258,
        21.8761286232,
        0.0
       ],
       [
        -102.272245018,
        21.8761224556,
        0.0
       ],
       [
        -102.272255602,
        21.8758202178,
        0.0
       ],
       [
        -102.272542477,
        21.8758220976,
        0.0
       ],
       [
        -102.272541448,
        21.8757948805,
        0.0
       ],
       [
        -102.272541858,
        21.8757732622,
        0.0
       ],
       [
        -102.272251712,
        21.8757705034,
        0.0
       ],
       [
        -102.272270369,
        21.8754073265,
        0.0
       ],
       [
        -102.272810138,
        21.8754122461,
        0.0
       ],
       [
        -102.272771356,
        21.8769255752,
        0.0
       ]
      ]
     ]
    }
   }
  ],
  [
   {
    "geometry": {
     "type": "Polygon",
     "coordinates": [
      [
       [
        -102.273168392,
        21.8756277127,
        0.0
       ],
       [
        -102.273166277,
        21.8759932819,
        0.0
       ],
       [
        -102.273195283,
        21.8759937624,
        0.0
       ],
       [
        -102.273224374,
        21.8759897306,
        0.0
       ],
       [
        -102.273220882,
        21.8756646912,
        0.0
       ],
       [
        -102.273442325,
        21.8758657564,
        0.0
       ],
       [
        -102.273404908,
        21.8769225292,
        0.0
       ],
       [
        -102.272858545,
        21.8769179924,
        0.0
       ],
       [
        -102.272859374,
        21.8766201064,
        0.0
       ],
       [
        -102.273231615,
        21.8766262727,
        0.0
       ],
       [
        -102.273232215,
        21.8765946872,
        0.0
       ],
       [
        -102.273232902,
        21.8765585895,
        0.0
       ],
       [
        -102.272865495,
        21.8765525034,
        0.0
       ],
       [
        -102.272880826,
        21.8762548577,
        0.0
       ],
       [
        -102.273214478,
        21.876255871,
        0.0
       ],
       [
        -102.27321525,
        21.8762152611,
        0.0
       ],
       [
        -102.273216022,
        21.8761746512,
        0.0
       ],
       [
        -102.272877537,
        21.8761735578,
        0.0
       ],
       [
        -102.272900081,
        21.8754215838,
        0.0
       ],
       [
        -102.273168392,
        21.8756277127,
        0.0
       ]
      ]
     ]
    }
   }
  ],
  [
   {
    "geometry": {
     "type": "Polygon",
     "coordinates": [
      [
       [
        -102.249672509,
        21.8691897694,
        0.0
       ],
       [
        -102.249553823,
        21.8692655356,
        0.0
       ],
       [
        -102.249379342,
        21.8691933685,
        0.0
       ],
       [
        -102.249276195,
        21.8690701633,
        0.0
       ],
       [
        -102.249084527,
        21.8689349885,
        0.0
       ],
       [
        -102.249481137,
        21.8687605535,
        0.0
       ],
       [
        -102.249672509,
        21.8691897694,
        0.0
       ]
      ]
     ]
    }
   }
  ],
  [
   {
    "geometry": {
     "type": "Polygon",
     "coordinates": [
      [
       [
        -102.249249856,
        21.8696829135,
        0.0
       ],
       [
        -102.248701895,
        21.8694710886,
        0.0
       ],
       [
        -102.248861564,
        21.8688854729,
        0.0
       ],
       [
        -102.249112823,
        21.8690565197,
        0.0
       ],
       [
        -102.249220056,
        21.8691532656,
        0.0
       ],
       [
        -102.249281631,
        21.8692159322,
        0.0
       ],
       [
        -102.249326938,
        21.8692804447,
        0.0
       ],
       [
        -102.249350669,
        21.8693323878,
        0.0
       ],
       [
        -102.249362221,
        21.8694126142,
        0.0
       ],
       [
        -102.249342018,
        21.8694801011,
        0.0
       ],
       [
        -102.249249856,
        21.8696829135,
        0.0
       ]
      ]
     ]
    }
   }
  ],
  [
   {
    "geometry": {
     "type": "Polygon",
     "coordinates": [
      [
       [
        -102.267632556,
        21.860591206,
        0.0
       ],
       [
        -102.266135373,
        21.8605680848,
        0.0
       ],
       [
        -102.266126893,
        21.8601555601,
        0.0
       ],
       [
        -102.267638585,
        21.8601697234,
        0.0
       ],
       [
        -102.267632556,
        21.860591206,
        0.0
       ]
      ]
     ]
    }
   }
  ],
  [
   {
    "geometry": {
     "type": "Polygon",
     "coordinates": [
      [
       [
        -102.259249681,
        21.8735314286,
        0.0
       ],
       [
        -102.259203239,
        21.8735761377,
        0.0
       ],
       [
        -102.2591192,
        21.8734987854,
        0.0
       ],
       [
        -102.258988494,
        21.8733847032,
        0.0
       ],
       [
        -102.258989492,
        21.8733593915,
        0.0
       ],
       [
        -102.259032776,
        21.8733045787,
        0.0
       ],
       [
        -102.259002009,
        21.8732836752,
        0.0
       ],
       [
        -102.259054906,
        21.8732341308,
        0.0
       ],
       [
        -102.259192668,
        21.873352508,
        0.0
       ],
       [
        -102.259147342,
        21.8733942693,
        0.0
       ],
       [
        -102.259120201,
        21.8733720651,
        0.0
       ],
       [
        -102.259097547,
        21.8733924515,
        0.0
       ],
       [
        -102.259249681,
        21.8735314286,
        0.0
       ]
      ]
     ]
    }
   }
  ],
  [
   {
    "geometry": {
     "type": "Polygon",
     "coordinates": [
      [
       [
        -102.332982207,
        21.8831286355,
        0.0
       ],
       [
        -102.332654807,
        21.8831747347,
        0.0
       ],
       [
        -102.332524009,
        21.8827969646,
        0.0
       ],
       [
        -102.33289607,
        21.8827436809,
        0.0
       ],
       [
        -102.332982207,
        21.8831286355,
        0.0
       ]
      ]
     ]
    }
   }
  ]
 ]
}