<?xml version="1.0" encoding="UTF-8"?>
<kml xmlns="http://www.opengis.net/kml/2.2" xmlns:gx="http://www.google.com/kml/ext/2.2" xmlns:kml="http://www.opengis.net/kml/2.2" xmlns:atom="http://www.w3.org/2005/Atom">
<Document id="LA_DELEGACIONES">
	<name>LA_DELEGACIONES</name>
	<Snippet maxLines="0"></Snippet>
	<Style id="PolyStyle00">
		<LabelStyle>
			<color>00000000</color>
			<scale>0</scale>
		</LabelStyle>
		<LineStyle>
			<color>ff6e6e6e</color>
			<width>0.4</width>
		</LineStyle>
		<PolyStyle>
			<color>ffd2fcd7</color>
		</PolyStyle>
	</Style>
	<Folder id="FeatureLayer0">
		<name>LA_DELEGACIONES</name>
		<Snippet maxLines="0"></Snippet>
		<Placemark>
			<name>01</name>
			<Snippet maxLines="0"></Snippet>
			<styleUrl>#PolyStyle00</styleUrl>
			<MultiGeometry>
				<Polygon>
					<tessellate>1</tessellate>
					<outerBoundaryIs>
						<LinearRing>
							<coordinates>
								-102.218112,21.973418,0 -102.217932,21.988249,0 -102.218607,21.996632,0 -102.225537,21.997244,0 -102.226109,21.997306,0 -102.229101,21.999254,0 -102.227245,22.01003,0 -102.226782,22.010952,0 -102.223377,22.010728,0 -102.22314,22.019829,0 -102.222979,22.023803,0 -102.222928,22.031522,0 -102.209285,22.028869,0 -102.207933,22.037945,0 -102.19608,22.036442,0 -102.187553,22.035533,0 -102.178845,22.032879,0 -102.177286,22.039592,0 -102.166893,22.037926,0 -102.171049,22.025757,0 -102.157739,22.026461,0 -102.157525,22.021265,0 -102.157462,22.020607,0 -102.157377,22.019913,0 -102.157483,22.019396,0 -102.157605,22.018845,0 -102.157683,22.018569,0 -102.157808,22.018275,0 -102.157916,22.017988,0 -102.15795,22.017901,0 -102.157495,22.017642,0 -102.157193,22.018037,0 -102.157137,22.018094,0 -102.157008,22.01818,0 -102.154327,22.019679,0 -102.153216,22.022499,0 -102.152192,22.022815,0 -102.152093,22.022969,0 -102.151989,22.023096,0 -102.151823,22.023224,0 -102.151729,22.023288,0 -102.151611,22.023344,0 -102.151502,22.023342,0 -102.1513,22.023339,0 -102.151122,22.023336,0 -102.150975,22.023317,0 -102.150889,22.023296,0 -102.150789,22.023258,0 -102.150704,22.023247,0 -102.150626,22.023232,0 -102.150425,22.023186,0 -102.150331,22.023191,0 -102.150236,22.023305,0 -102.150085,22.023476,0 -102.149936,22.023554,0 -102.149895,22.023639,0 -102.149746,22.023732,0 -102.14966,22.023744,0 -102.149628,22.023802,0 -102.14955,22.023807,0 -102.149495,22.023829,0 -102.1494,22.023899,0 -102.149352,22.023971,0 -102.149243,22.024005,0 -102.149133,22.024068,0 -102.149045,22.024139,0 -102.148936,22.024173,0 -102.148764,22.024243,0 -102.1486,22.024276,0 -102.148498,22.024303,0 -102.148326,22.024359,0 -102.148201,22.0244,0 -102.148184,22.024472,0 -102.148114,22.024464,0 -102.148052,22.024447,0 -102.147959,22.024481,0 -102.147865,22.024495,0 -102.147693,22.024529,0 -102.147445,22.024524,0 -102.14732,22.024536,0 -102.147009,22.024539,0 -102.146364,22.024842,0 -102.146201,22.024979,0 -102.146025,22.025088,0 -102.145705,22.025232,0 -102.145309,22.025408,0 -102.144905,22.02561,0 -102.144654,22.025712,0 -102.144304,22.025853,0 -102.143698,22.026005,0 -102.143431,22.02612,0 -102.143268,22.026363,0 -102.14315,22.02662,0 -102.143017,22.02683,0 -102.142915,22.027038,0 -102.142799,22.027169,0 -102.142587,22.027222,0 -102.142346,22.027218,0 -102.142068,22.02715,0 -102.14185,22.027119,0 -102.141594,22.027065,0 -102.141457,22.026961,0 -102.141315,22.026872,0 -102.138871,22.028362,0 -102.138738,22.028416,0 -102.137082,22.028606,0 -102.136053,22.028735,0 -102.135909,22.028782,0 -102.135711,22.028878,0 -102.135597,22.02891,0 -102.135521,22.028908,0 -102.135393,22.028906,0 -102.135198,22.028848,0 -102.135079,22.028803,0 -102.134897,22.028827,0 -102.134827,22.028919,0 -102.134779,22.029044,0 -102.134635,22.029112,0 -102.138998,22.031616,0 -102.143462,22.034215,0 -102.14456,22.034866,0 -102.143612,22.038848,0 -102.141794,22.046452,0 -102.139764,22.05503,0 -102.138988,22.058158,0 -102.138487,22.060284,0 -102.14086,22.075356,0 -102.107253,22.07477,0 -102.106924,22.068466,0 -102.106584,22.060591,0 -102.103612,22.057239,0 -102.103768,22.05717,0 -102.103923,22.057173,0 -102.104103,22.057237,0 -102.104319,22.057408,0 -102.104484,22.057569,0 -102.104688,22.057692,0 -102.104906,22.057793,0 -102.105177,22.057797,0 -102.105372,22.05774,0 -102.105592,22.057683,0 -102.105763,22.057591,0 -102.105881,22.057471,0 -102.105964,22.05722,0 -102.105994,22.057029,0 -102.105997,22.05686,0 -102.106054,22.056619,0 -102.106032,22.056438,0 -102.105919,22.056256,0 -102.105842,22.056196,0 -102.105832,22.05611,0 -102.105871,22.056052,0 -102.105964,22.055968,0 -102.106107,22.055923,0 -102.106249,22.055889,0 -102.106342,22.055805,0 -102.106344,22.055711,0 -102.106256,22.055551,0 -102.106247,22.055384,0 -102.106277,22.05519,0 -102.106408,22.055073,0 -102.106643,22.054969,0 -102.106891,22.054865,0 -102.107125,22.054772,0 -102.107321,22.054679,0 -102.107724,22.054577,0 -102.108088,22.054439,0 -102.108429,22.054217,0 -102.108522,22.0541,0 -102.108576,22.053992,0 -102.108758,22.053923,0 -102.108869,22.053794,0 -102.108962,22.053663,0 -102.109171,22.053594,0 -102.109339,22.053611,0 -102.109545,22.053626,0 -102.109894,22.053621,0 -102.110075,22.05361,0 -102.110231,22.053541,0 -102.110402,22.053435,0 -102.110609,22.053403,0 -102.110816,22.053395,0 -102.110958,22.053398,0 -102.111085,22.05352,0 -102.111147,22.053618,0 -102.111276,22.053656,0 -102.111471,22.053599,0 -102.111563,22.053506,0 -102.111541,22.053347,0 -102.111479,22.053202,0 -102.111509,22.052986,0 -102.111577,22.052831,0 -102.111672,22.052616,0 -102.111754,22.052387,0 -102.11194,22.052138,0 -102.11211,22.052021,0 -102.112268,22.05188,0 -102.112324,22.0517,0 -102.11247,22.051509,0 -102.112617,22.051259,0 -102.112779,22.050948,0 -102.112732,22.050683,0 -102.112725,22.050405,0 -102.112679,22.05014,0 -102.112593,22.049886,0 -102.112481,22.049679,0 -102.112459,22.049498,0 -102.112371,22.049388,0 -102.112206,22.049241,0 -102.11204,22.049166,0 -102.111924,22.04908,0 -102.111903,22.048874,0 -102.111906,22.048741,0 -102.111792,22.048584,0 -102.111665,22.048484,0 -102.111434,22.048419,0 -102.111177,22.048356,0 -102.110985,22.048256,0 -102.110742,22.048107,0 -102.110564,22.047984,0 -102.11049,22.047825,0 -102.110534,22.047573,0 -102.110575,22.047441,0 -102.110592,22.047312,0 -102.110594,22.047168,0 -102.110636,22.047049,0 -102.110653,22.046855,0 -102.11076,22.046641,0 -102.11084,22.046522,0 -102.110869,22.046354,0 -102.110899,22.046187,0 -102.110878,22.045932,0 -102.11092,22.045752,0 -102.110999,22.045695,0 -102.111117,22.045625,0 -102.1113,22.045542,0 -102.111495,22.045487,0 -102.111612,22.045403,0 -102.11168,22.04526,0 -102.111749,22.045081,0 -102.111738,22.04495,0 -102.111702,22.044816,0 -102.11173,22.044708,0 -102.111798,22.044576,0 -102.111902,22.044542,0 -102.112044,22.044544,0 -102.11225,22.044573,0 -102.112506,22.04465,0 -102.112661,22.0447,0 -102.112764,22.044724,0 -102.113055,22.04479,0 -102.11317,22.044803,0 -102.113277,22.044857,0 -102.113419,22.044896,0 -102.113614,22.044958,0 -102.113973,22.044996,0 -102.114238,22.045,0 -102.114448,22.045004,0 -102.114645,22.044987,0 -102.114753,22.045003,0 -102.114876,22.044973,0 -102.114918,22.044891,0 -102.115028,22.04485,0 -102.115197,22.044853,0 -102.115386,22.044894,0 -102.115631,22.044885,0 -102.115876,22.044813,0 -102.116088,22.044735,0 -102.116212,22.044656,0 -102.116296,22.044525,0 -102.116361,22.044343,0 -102.116371,22.044178,0 -102.116368,22.043962,0 -102.11633,22.043841,0 -102.116346,22.043747,0 -102.116423,22.043604,0 -102.116508,22.043459,0 -102.116591,22.043386,0 -102.11668,22.043286,0 -102.11673,22.043223,0 -102.116725,22.043097,0 -102.116673,22.042988,0 -102.116531,22.042936,0 -102.116477,22.042959,0 -102.116401,22.043028,0 -102.116324,22.043128,0 -102.116228,22.043201,0 -102.116126,22.043199,0 -102.116004,22.043179,0 -102.115903,22.043152,0 -102.115747,22.043129,0 -102.115695,22.043072,0 -102.115642,22.04299,0 -102.115582,22.042912,0 -102.115539,22.042722,0 -102.115535,22.042582,0 -102.115547,22.042356,0 -102.115597,22.042211,0 -102.115626,22.042123,0 -102.11571,22.041978,0 -102.115822,22.041804,0 -102.115973,22.041698,0 -102.11614,22.041584,0 -102.116264,22.04146,0 -102.116355,22.041317,0 -102.116406,22.041191,0 -102.116403,22.040957,0 -102.116353,22.04078,0 -102.116247,22.040624,0 -102.116148,22.040496,0 -102.116044,22.040273,0 -102.115918,22.040138,0 -102.115888,22.039943,0 -102.115899,22.039727,0 -102.115902,22.039589,0 -102.115912,22.039436,0 -102.115908,22.039298,0 -102.115863,22.039189,0 -102.115837,22.039132,0 -102.115657,22.038989,0 -102.115544,22.038861,0 -102.115487,22.038691,0 -102.11547,22.038501,0 -102.115466,22.038361,0 -102.115489,22.038205,0 -102.115567,22.038049,0 -102.115598,22.03786,0 -102.115642,22.037703,0 -102.115652,22.03752,0 -102.115643,22.037324,0 -102.115592,22.037176,0 -102.115581,22.03707,0 -102.115467,22.036948,0 -102.115382,22.036825,0 -102.115315,22.036742,0 -102.11516,22.036688,0 -102.114991,22.036674,0 -102.114801,22.036681,0 -102.114705,22.036743,0 -102.114579,22.036905,0 -102.114529,22.037044,0 -102.11446,22.037138,0 -102.114391,22.037175,0 -102.114282,22.037205,0 -102.11418,22.037183,0 -102.114114,22.037125,0 -102.114054,22.037068,0 -102.11404,22.036959,0 -102.114043,22.036813,0 -102.114019,22.036654,0 -102.113914,22.036488,0 -102.113814,22.03638,0 -102.113673,22.036314,0 -102.113574,22.036229,0 -102.113534,22.036154,0 -102.11351,22.036013,0 -102.113499,22.035887,0 -102.113412,22.035808,0 -102.113264,22.035763,0 -102.113062,22.035696,0 -102.112886,22.035648,0 -102.112698,22.035582,0 -102.112612,22.035478,0 -102.11258,22.035352,0 -102.112584,22.035169,0 -102.112588,22.034961,0 -102.112579,22.034751,0 -102.112597,22.034167,0 -102.112574,22.034002,0 -102.112549,22.033855,0 -102.112526,22.033692,0 -102.112508,22.03352,0 -102.112485,22.033323,0 -102.112449,22.031793,0 -102.112458,22.031351,0 -102.109592,22.027132,0 -102.096836,22.023014,0 -102.097739,22.013203,0 -102.09713,21.996076,0 -102.097413,21.994089,0 -102.09776,21.992188,0 -102.097286,21.989697,0 -102.096146,21.983354,0 -102.095058,21.977622,0 -102.094268,21.97242,0 -102.093936,21.97048,0 -102.092418,21.961235,0 -102.094444,21.961129,0 -102.095071,21.961163,0 -102.095597,21.961113,0 -102.096199,21.961063,0 -102.097269,21.961001,0 -102.100778,21.964854,0 -102.100805,21.966655,0 -102.100628,21.969118,0 -102.100556,21.971362,0 -102.100565,21.97222,0 -102.107484,21.974152,0 -102.108288,21.974252,0 -102.112798,21.974731,0 -102.116776,21.975155,0 -102.118602,21.975343,0 -102.121035,21.975656,0 -102.121491,21.975707,0 -102.12181,21.975798,0 -102.122052,21.975845,0 -102.122434,21.975823,0 -102.122693,21.975857,0 -102.123057,21.975933,0 -102.123651,21.975943,0 -102.131844,21.976913,0 -102.132686,21.972997,0 -102.134441,21.96533,0 -102.134708,21.96417,0 -102.134805,21.96393,0 -102.135174,21.960784,0 -102.135843,21.957073,0 -102.13637,21.953559,0 -102.136502,21.952296,0 -102.137786,21.944463,0 -102.138463,21.940354,0 -102.129845,21.939791,0 -102.129844,21.939646,0 -102.129627,21.936946,0 -102.138376,21.937511,0 -102.150441,21.936545,0 -102.154283,21.936337,0 -102.160029,21.936885,0 -102.164126,21.937256,0 -102.167545,21.934896,0 -102.176657,21.928838,0 -102.179674,21.926509,0 -102.180819,21.925768,0 -102.181675,21.924795,0 -102.184423,21.926356,0 -102.190831,21.930291,0 -102.192924,21.930922,0 -102.194339,21.929755,0 -102.197845,21.93137,0 -102.198903,21.931934,0 -102.200131,21.933731,0 -102.200757,21.935362,0 -102.201375,21.935932,0 -102.204231,21.936874,0 -102.205553,21.938154,0 -102.206107,21.93905,0 -102.206718,21.939108,0 -102.208609,21.941521,0 -102.210379,21.942313,0 -102.20837,21.945944,0 -102.213213,21.946074,0 -102.210154,21.963814,0 -102.201229,21.962491,0 -102.200034,21.97119,0 -102.20412,21.971515,0 -102.2043,21.972791,0 -102.20637,21.971553,0 -102.218112,21.973418,0 
							</coordinates>
						</LinearRing>
					</outerBoundaryIs>
				</Polygon>
			</MultiGeometry>
		</Placemark>
		<Placemark>
			<name>01</name>
			<Snippet maxLines="0"></Snippet>
			<styleUrl>#PolyStyle00</styleUrl>
			<MultiGeometry>
				<Polygon>
					<tessellate>1</tessellate>
					<outerBoundaryIs>
						<LinearRing>
							<coordinates>
								-102.229962,21.961437,0 -102.229364,21.96453,0 -102.229039,21.965465,0 -102.22899,21.96569,0 -102.228606,21.969087,0 -102.228222,21.971874,0 -102.228176,21.972535,0 -102.227525,21.974959,0 -102.218112,21.973418,0 -102.20637,21.971553,0 -102.2043,21.972791,0 -102.20412,21.971515,0 -102.200034,21.97119,0 -102.201229,21.962491,0 -102.210154,21.963814,0 -102.213213,21.946074,0 -102.20837,21.945944,0 -102.210379,21.942313,0 -102.208609,21.941521,0 -102.206718,21.939108,0 -102.206107,21.93905,0 -102.205553,21.938154,0 -102.204231,21.936874,0 -102.201375,21.935932,0 -102.200757,21.935362,0 -102.200131,21.933731,0 -102.198903,21.931934,0 -102.197845,21.93137,0 -102.194339,21.929755,0 -102.192924,21.930922,0 -102.190831,21.930291,0 -102.184423,21.926356,0 -102.181675,21.924795,0 -102.180819,21.925768,0 -102.179674,21.926509,0 -102.176657,21.928838,0 -102.167545,21.934896,0 -102.164126,21.937256,0 -102.164467,21.934087,0 -102.164946,21.929548,0 -102.165228,21.927497,0 -102.165541,21.924738,0 -102.166107,21.919614,0 -102.165661,21.919658,0 -102.16516,21.919683,0 -102.164882,21.919679,0 -102.164511,21.919672,0 -102.164159,21.919648,0 -102.163974,21.919629,0 -102.163733,21.919625,0 -102.163287,21.919685,0 -102.16299,21.91968,0 -102.16198,21.919687,0 -102.162417,21.90629,0 -102.160066,21.907836,0 -102.157891,21.909259,0 -102.156833,21.909917,0 -102.156334,21.910179,0 -102.155656,21.910472,0 -102.155213,21.910614,0 -102.155446,21.904392,0 -102.155737,21.893567,0 -102.156416,21.881352,0 -102.156795,21.875647,0 -102.156816,21.874551,0 -102.156987,21.873062,0 -102.157118,21.8696,0 -102.168252,21.87021,0 -102.168853,21.87022,0 -102.1695,21.870231,0 -102.170454,21.87029,0 -102.170967,21.870403,0 -102.171528,21.870611,0 -102.173152,21.870477,0 -102.174747,21.870493,0 -102.175171,21.857915,0 -102.175661,21.857934,0 -102.175557,21.856256,0 -102.175617,21.855566,0 -102.175643,21.854353,0 -102.175582,21.852632,0 -102.175566,21.851837,0 -102.175426,21.850616,0 -102.17562,21.849706,0 -102.175584,21.847712,0 -102.175506,21.847242,0 -102.175646,21.845807,0 -102.175879,21.844123,0 -102.176134,21.843928,0 -102.175405,21.843893,0 -102.174742,21.843882,0 -102.174138,21.843743,0 -102.173835,21.843711,0 -102.173425,21.843564,0 -102.172584,21.843484,0 -102.172267,21.843478,0 -102.172074,21.843475,0 -102.171895,21.843472,0 -102.17177,21.843522,0 -102.171452,21.84353,0 -102.171259,21.843526,0 -102.171108,21.843497,0 -102.170957,21.843481,0 -102.170736,21.843466,0 -102.170571,21.843463,0 -102.17042,21.843408,0 -102.170173,21.843366,0 -102.169993,21.843363,0 -102.169651,21.843242,0 -102.169416,21.843224,0 -102.169127,21.843206,0 -102.168879,21.843201,0 -102.16866,21.843121,0 -102.168248,21.843037,0 -102.167489,21.843035,0 -102.168192,21.842018,0 -102.169758,21.839637,0 -102.16986,21.838782,0 -102.170161,21.83648,0 -102.1701,21.836473,0 -102.170164,21.835991,0 -102.170415,21.834246,0 -102.170673,21.832204,0 -102.170698,21.832098,0 -102.170804,21.831854,0 -102.170845,21.830146,0 -102.170837,21.829756,0 -102.170823,21.829284,0 -102.170873,21.828766,0 -102.170913,21.826706,0 -102.168806,21.826428,0 -102.169638,21.823498,0 -102.166508,21.822706,0 -102.159107,21.820809,0 -102.159483,21.817149,0 -102.160214,21.811369,0 -102.15247,21.810039,0 -102.15047,21.809731,0 -102.150546,21.809166,0 -102.150683,21.808286,0 -102.150757,21.807286,0 -102.151337,21.803198,0 -102.151533,21.802037,0 -102.152278,21.796697,0 -102.152468,21.795323,0 -102.152777,21.792817,0 -102.153351,21.788932,0 -102.145872,21.787954,0 -102.145287,21.79174,0 -102.143685,21.791507,0 -102.143733,21.79455,0 -102.142562,21.79547,0 -102.140437,21.797167,0 -102.140748,21.794557,0 -102.13822,21.794222,0 -102.132516,21.793304,0 -102.132259,21.794791,0 -102.132224,21.794957,0 -102.131929,21.796665,0 -102.126395,21.79609,0 -102.124582,21.79567,0 -102.121121,21.79496,0 -102.119594,21.794649,0 -102.117238,21.794161,0 -102.114949,21.800268,0 -102.11452,21.800141,0 -102.114154,21.800106,0 -102.113755,21.800038,0 -102.113341,21.800001,0 -102.11299,21.79995,0 -102.11283,21.799947,0 -102.112497,21.799837,0 -102.112019,21.799784,0 -102.111797,21.799721,0 -102.111493,21.799716,0 -102.110999,21.799633,0 -102.110601,21.799581,0 -102.11017,21.799544,0 -102.110059,21.799542,0 -102.109866,21.799552,0 -102.109658,21.799548,0 -102.109227,21.799557,0 -102.10886,21.799564,0 -102.10862,21.799575,0 -102.108283,21.799628,0 -102.107521,21.799391,0 -102.106089,21.801485,0 -102.105961,21.801483,0 -102.104893,21.803127,0 -102.10414,21.80288,0 -102.103276,21.802648,0 -102.10293,21.802545,0 -102.102634,21.802431,0 -102.102567,21.802376,0 -102.102326,21.802353,0 -102.101864,21.802255,0 -102.101144,21.802062,0 -102.10025,21.80183,0 -102.099462,21.801653,0 -102.097558,21.800774,0 -102.097754,21.800479,0 -102.095343,21.799814,0 -102.094924,21.799723,0 -102.091641,21.798745,0 -102.091417,21.799318,0 -102.088986,21.798743,0 -102.088823,21.798686,0 -102.088785,21.798631,0 -102.088679,21.79862,0 -102.088534,21.798627,0 -102.088356,21.798614,0 -102.078797,21.796324,0 -102.078653,21.796268,0 -102.074579,21.795747,0 -102.071692,21.794827,0 -102.068672,21.793782,0 -102.068785,21.793514,0 -102.068195,21.793176,0 -102.068655,21.792311,0 -102.073988,21.783115,0 -102.08292,21.787385,0 -102.096825,21.775832,0 -102.088755,21.766741,0 -102.098375,21.76313,0 -102.099004,21.760541,0 -102.099258,21.759467,0 -102.099481,21.759577,0 -102.099756,21.759844,0 -102.099882,21.760162,0 -102.099892,21.760582,0 -102.099885,21.760913,0 -102.099937,21.761126,0 -102.100139,21.761304,0 -102.100457,21.761361,0 -102.101003,21.761285,0 -102.101345,21.761045,0 -102.101673,21.760595,0 -102.101926,21.76011,0 -102.102163,21.759554,0 -102.10221,21.759081,0 -102.102299,21.758383,0 -102.102304,21.758085,0 -102.102142,21.757803,0 -102.101697,21.757497,0 -102.101256,21.757088,0 -102.100662,21.756761,0 -102.100295,21.756387,0 -102.100002,21.75605,0 -102.099934,21.755697,0 -102.099943,21.755226,0 -102.099991,21.754701,0 -102.100163,21.754546,0 -102.100393,21.754306,0 -102.100659,21.754101,0 -102.100905,21.753999,0 -102.101189,21.7539,0 -102.102648,21.753858,0 -102.10819,21.75363,0 -102.108838,21.752574,0 -102.112568,21.752818,0 -102.114882,21.7466,0 -102.116257,21.74697,0 -102.116907,21.74574,0 -102.117163,21.744031,0 -102.119895,21.741518,0 -102.116733,21.739479,0 -102.114694,21.738819,0 -102.115814,21.736247,0 -102.118972,21.738171,0 -102.120908,21.736551,0 -102.125512,21.725794,0 -102.133515,21.728573,0 -102.142686,21.731503,0 -102.146653,21.713665,0 -102.147206,21.711366,0 -102.148831,21.708589,0 -102.151586,21.703823,0 -102.153137,21.701821,0 -102.155169,21.700046,0 -102.156708,21.70065,0 -102.166642,21.702576,0 -102.166487,21.705915,0 -102.171209,21.70728,0 -102.174552,21.698405,0 -102.177753,21.688173,0 -102.208175,21.693674,0 -102.206789,21.700114,0 -102.206462,21.702733,0 -102.205808,21.707892,0 -102.204801,21.715514,0 -102.208359,21.716867,0 -102.210154,21.716281,0 -102.212195,21.715458,0 -102.21347,21.715229,0 -102.216531,21.715136,0 -102.218077,21.718236,0 -102.219294,21.718613,0 -102.215642,21.744401,0 -102.21649,21.745584,0 -102.214784,21.749417,0 -102.214254,21.754287,0 -102.21333,21.757067,0 -102.19064,21.754447,0 -102.189904,21.761548,0 -102.19479,21.762089,0 -102.19467,21.762646,0 -102.199338,21.763181,0 -102.198556,21.772965,0 -102.205566,21.774857,0 -102.208648,21.776405,0 -102.20697,21.787575,0 -102.20885,21.792545,0 -102.20994,21.794781,0 -102.21048,21.796582,0 -102.210608,21.797018,0 -102.211724,21.798828,0 -102.218498,21.796846,0 -102.220987,21.804812,0 -102.218762,21.804885,0 -102.21727,21.805537,0 -102.215304,21.805765,0 -102.214267,21.806425,0 -102.212842,21.806638,0 -102.210196,21.807825,0 -102.209287,21.807611,0 -102.208041,21.807531,0 -102.205815,21.801006,0 -102.205531,21.799665,0 -102.204609,21.799866,0 -102.204203,21.798803,0 -102.201682,21.800261,0 -102.201488,21.801314,0 -102.200587,21.802418,0 -102.196968,21.806755,0 -102.195149,21.809378,0 -102.193963,21.810206,0 -102.193876,21.811216,0 -102.192247,21.812506,0 -102.193093,21.81326,0 -102.19364,21.81243,0 -102.195226,21.813811,0 -102.195976,21.814158,0 -102.197783,21.815739,0 -102.197885,21.816427,0 -102.198941,21.817835,0 -102.200351,21.817444,0 -102.200366,21.816649,0 -102.20292,21.821141,0 -102.206076,21.827513,0 -102.207016,21.822275,0 -102.219256,21.829435,0 -102.217922,21.830902,0 -102.215715,21.832327,0 -102.215351,21.833122,0 -102.215139,21.833798,0 -102.214665,21.834699,0 -102.214325,21.83517,0 -102.21325,21.835896,0 -102.212738,21.83647,0 -102.21229,21.837162,0 -102.211887,21.838473,0 -102.211679,21.838641,0 -102.210926,21.840172,0 -102.21083,21.840721,0 -102.21788,21.841899,0 -102.216525,21.851268,0 -102.190765,21.849976,0 -102.191403,21.874522,0 -102.199508,21.874603,0 -102.195777,21.891657,0 -102.19586,21.893732,0 -102.194483,21.902871,0 -102.192124,21.905929,0 -102.20677,21.908715,0 -102.206183,21.895521,0 -102.210912,21.896389,0 -102.211817,21.898618,0 -102.21887,21.899327,0 -102.231927,21.9011,0 -102.228967,21.92348,0 -102.225336,21.947717,0 -102.231745,21.948518,0 -102.231947,21.948826,0 -102.231853,21.949102,0 -102.232019,21.94977,0 -102.229962,21.961437,0 
							</coordinates>
						</LinearRing>
					</outerBoundaryIs>
				</Polygon>
			</MultiGeometry>
		</Placemark>
		<Placemark>
			<name>01</name>
			<Snippet maxLines="0"></Snippet>
			<styleUrl>#PolyStyle00</styleUrl>
			<MultiGeometry>
				<Polygon>
					<tessellate>1</tessellate>
					<outerBoundaryIs>
						<LinearRing>
							<coordinates>
								-102.290982,21.939077,0 -102.290857,21.941508,0 -102.290721,21.944792,0 -102.290577,21.947807,0 -102.290471,21.950123,0 -102.289533,21.950143,0 -102.288899,21.950185,0 -102.288562,21.950204,0 -102.284968,21.95042,0 -102.281777,21.950532,0 -102.280679,21.953484,0 -102.281687,21.953426,0 -102.290253,21.952915,0 -102.290099,21.957099,0 -102.289983,21.962924,0 -102.286938,21.962427,0 -102.28541,21.962174,0 -102.282971,21.96179,0 -102.279918,21.961329,0 -102.277905,21.961011,0 -102.278915,21.958318,0 -102.275808,21.957783,0 -102.272577,21.957199,0 -102.274241,21.953763,0 -102.266317,21.951891,0 -102.266759,21.948843,0 -102.266869,21.947294,0 -102.26692,21.945038,0 -102.266974,21.94429,0 -102.266683,21.943229,0 -102.266439,21.943346,0 -102.266154,21.943439,0 -102.265953,21.943505,0 -102.265721,21.943535,0 -102.2655,21.943545,0 -102.265249,21.943537,0 -102.265002,21.943528,0 -102.264786,21.943563,0 -102.264569,21.943649,0 -102.264405,21.943699,0 -102.264247,21.943746,0 -102.264157,21.943794,0 -102.264062,21.943806,0 -102.263983,21.943816,0 -102.263919,21.943857,0 -102.263782,21.943864,0 -102.263688,21.943901,0 -102.263555,21.943942,0 -102.263488,21.944022,0 -102.263411,21.944041,0 -102.263299,21.94414,0 -102.263232,21.94418,0 -102.263089,21.944218,0 -102.262945,21.944299,0 -102.262866,21.944379,0 -102.262799,21.944471,0 -102.262699,21.944541,0 -102.262664,21.944631,0 -102.262554,21.944661,0 -102.262432,21.944711,0 -102.262353,21.944831,0 -102.262219,21.944962,0 -102.262108,21.945032,0 -102.26203,21.945081,0 -102.261918,21.945192,0 -102.261827,21.945344,0 -102.261682,21.945445,0 -102.261559,21.945585,0 -102.261459,21.945705,0 -102.261401,21.945849,0 -102.261322,21.945929,0 -102.261178,21.94601,0 -102.261111,21.946079,0 -102.261054,21.946191,0 -102.26104,21.946364,0 -102.260993,21.946517,0 -102.260957,21.94664,0 -102.260812,21.946771,0 -102.260767,21.946831,0 -102.260729,21.946966,0 -102.260693,21.94711,0 -102.26068,21.947222,0 -102.260655,21.947376,0 -102.260411,21.947484,0 -102.260113,21.947581,0 -102.259893,21.947609,0 -102.25962,21.947541,0 -102.259489,21.94751,0 -102.259215,21.947514,0 -102.259027,21.947572,0 -102.258827,21.947713,0 -102.258604,21.947903,0 -102.258458,21.948075,0 -102.25828,21.948184,0 -102.258004,21.948252,0 -102.257674,21.948307,0 -102.257311,21.948374,0 -102.257018,21.948493,0 -102.256687,21.9486,0 -102.256554,21.948639,0 -102.255053,21.949123,0 -102.254721,21.949242,0 -102.254345,21.949378,0 -102.253903,21.949535,0 -102.253651,21.94954,0 -102.253398,21.949576,0 -102.253176,21.949697,0 -102.252911,21.949785,0 -102.252698,21.949865,0 -102.252498,21.949965,0 -102.252311,21.950023,0 -102.252221,21.950114,0 -102.252064,21.950265,0 -102.251875,21.950424,0 -102.251741,21.950526,0 -102.251595,21.950697,0 -102.251373,21.950847,0 -102.251217,21.950966,0 -102.250962,21.951095,0 -102.250817,21.951206,0 -102.25064,21.951315,0 -102.250485,21.951353,0 -102.250364,21.951372,0 -102.250287,21.951402,0 -102.25024,21.951503,0 -102.250216,21.951636,0 -102.250149,21.951695,0 -102.249337,21.952052,0 -102.248386,21.950122,0 -102.242299,21.953123,0 -102.234902,21.956831,0 -102.234554,21.957021,0 -102.232325,21.959197,0 -102.230467,21.960999,0 -102.229962,21.961437,0 -102.232019,21.94977,0 -102.231853,21.949102,0 -102.231947,21.948826,0 -102.231745,21.948518,0 -102.225336,21.947717,0 -102.228967,21.92348,0 -102.231927,21.9011,0 -102.21887,21.899327,0 -102.211817,21.898618,0 -102.210912,21.896389,0 -102.206183,21.895521,0 -102.20677,21.908715,0 -102.192124,21.905929,0 -102.194483,21.902871,0 -102.19586,21.893732,0 -102.195777,21.891657,0 -102.199508,21.874603,0 -102.191403,21.874522,0 -102.190765,21.849976,0 -102.216525,21.851268,0 -102.215264,21.858665,0 -102.217528,21.859455,0 -102.219912,21.86019,0 -102.222067,21.86066,0 -102.223512,21.860948,0 -102.224696,21.861239,0 -102.22594,21.861573,0 -102.227006,21.861905,0 -102.230091,21.862907,0 -102.23186,21.863449,0 -102.236904,21.865202,0 -102.239183,21.865971,0 -102.241634,21.866793,0 -102.244531,21.867773,0 -102.245816,21.86826,0 -102.251521,21.871641,0 -102.253319,21.872786,0 -102.255366,21.874285,0 -102.261977,21.87908,0 -102.265127,21.881297,0 -102.269942,21.884044,0 -102.270144,21.884124,0 -102.272516,21.883789,0 -102.272592,21.884241,0 -102.273388,21.889204,0 -102.27348,21.889645,0 -102.273662,21.890089,0 -102.275482,21.892362,0 -102.278381,21.896071,0 -102.279727,21.8977,0 -102.282513,21.901185,0 -102.283319,21.902182,0 -102.283552,21.902374,0 -102.283885,21.902555,0 -102.284154,21.902663,0 -102.284443,21.902725,0 -102.284732,21.902729,0 -102.285033,21.902727,0 -102.285324,21.902667,0 -102.285903,21.902509,0 -102.288366,21.90183,0 -102.292571,21.900705,0 -102.29246,21.903906,0 -102.291942,21.915482,0 -102.291483,21.925544,0 -102.291022,21.932486,0 -102.290982,21.939077,0 
							</coordinates>
						</LinearRing>
					</outerBoundaryIs>
				</Polygon>
			</MultiGeometry>
		</Placemark>
		<Placemark>
			<name>01</name>
			<Snippet maxLines="0"></Snippet>
			<styleUrl>#PolyStyle00</styleUrl>
			<MultiGeometry>
				<Polygon>
					<tessellate>1</tessellate>
					<outerBoundaryIs>
						<LinearRing>
							<coordinates>
								-102.290982,21.939077,0 -102.291022,21.932486,0 -102.291483,21.925544,0 -102.291942,21.915482,0 -102.29246,21.903906,0 -102.292571,21.900705,0 -102.295965,21.899757,0 -102.298548,21.899032,0 -102.30466,21.897349,0 -102.309162,21.896098,0 -102.310264,21.895703,0 -102.310908,21.895197,0 -102.311486,21.894631,0 -102.311879,21.894109,0 -102.312206,21.893517,0 -102.312406,21.892933,0 -102.312538,21.892369,0 -102.312576,21.891767,0 -102.312503,21.88555,0 -102.312457,21.881356,0 -102.312447,21.880388,0 -102.312407,21.879577,0 -102.312141,21.876612,0 -102.311969,21.874248,0 -102.318631,21.871592,0 -102.31953,21.87125,0 -102.320917,21.871201,0 -102.322257,21.871374,0 -102.324262,21.871632,0 -102.327669,21.87215,0 -102.32883,21.872458,0 -102.333736,21.873772,0 -102.336747,21.874549,0 -102.339847,21.875346,0 -102.341906,21.875894,0 -102.347817,21.877481,0 -102.356601,21.879814,0 -102.364732,21.88205,0 -102.368632,21.883058,0 -102.398402,21.891052,0 -102.406728,21.893251,0 -102.405786,21.893527,0 -102.404725,21.893826,0 -102.404309,21.893912,0 -102.403909,21.893947,0 -102.403449,21.894032,0 -102.403034,21.894079,0 -102.402675,21.894139,0 -102.402246,21.894173,0 -102.401788,21.894206,0 -102.40113,21.894223,0 -102.400558,21.894266,0 -102.400028,21.894298,0 -102.399634,21.89436,0 -102.399392,21.894374,0 -102.399152,21.894361,0 -102.398921,21.894351,0 -102.398677,21.894345,0 -102.398431,21.894318,0 -102.398007,21.89428,0 -102.397408,21.894205,0 -102.397036,21.894213,0 -102.396607,21.894233,0 -102.396263,21.894266,0 -102.395748,21.894258,0 -102.395234,21.894236,0 -102.394948,21.894218,0 -102.394419,21.894237,0 -102.39399,21.89423,0 -102.393461,21.894249,0 -102.39309,21.89427,0 -102.392604,21.894262,0 -102.391917,21.894265,0 -102.390102,21.894286,0 -102.390548,21.898421,0 -102.391139,21.898134,0 -102.391381,21.898046,0 -102.391662,21.89805,0 -102.392068,21.898106,0 -102.392321,21.898142,0 -102.392516,21.8981,0 -102.392796,21.8981,0 -102.393037,21.898097,0 -102.393252,21.898019,0 -102.393354,21.897914,0 -102.395382,21.902722,0 -102.395292,21.905707,0 -102.39482,21.905478,0 -102.394692,21.905512,0 -102.394589,21.905594,0 -102.394461,21.905662,0 -102.394362,21.905543,0 -102.394059,21.905444,0 -102.393919,21.905441,0 -102.393778,21.905568,0 -102.393561,21.905589,0 -102.393347,21.905514,0 -102.393197,21.905369,0 -102.393122,21.90532,0 -102.392842,21.905341,0 -102.392601,21.905337,0 -102.392259,21.905332,0 -102.391979,21.90535,0 -102.391775,21.905419,0 -102.391608,21.905511,0 -102.391431,21.905449,0 -102.391112,21.905562,0 -102.390732,21.905544,0 -102.390556,21.905447,0 -102.390318,21.905265,0 -102.390067,21.905107,0 -102.389827,21.905045,0 -102.389276,21.904968,0 -102.389857,21.905557,0 -102.38822,21.909407,0 -102.387972,21.909983,0 -102.387848,21.91038,0 -102.387735,21.910722,0 -102.387611,21.911112,0 -102.387498,21.911395,0 -102.387321,21.911807,0 -102.387123,21.912339,0 -102.387019,21.912638,0 -102.38659,21.912624,0 -102.386223,21.912625,0 -102.385749,21.912593,0 -102.385258,21.912551,0 -102.384579,21.91245,0 -102.38415,21.9124,0 -102.383721,21.912344,0 -102.383266,21.912287,0 -102.382941,21.912318,0 -102.382777,21.912417,0 -102.38303,21.912967,0 -102.382889,21.912967,0 -102.382805,21.91299,0 -102.38283,21.913153,0 -102.382892,21.913366,0 -102.382906,21.913561,0 -102.382957,21.913805,0 -102.383004,21.913951,0 -102.383018,21.914109,0 -102.383021,21.914294,0 -102.382988,21.914528,0 -102.382906,21.914777,0 -102.382823,21.915024,0 -102.382797,21.915254,0 -102.382772,21.915414,0 -102.382776,21.91547,0 -102.382309,21.915759,0 -102.381486,21.916395,0 -102.380042,21.918383,0 -102.379966,21.918556,0 -102.380825,21.919339,0 -102.380419,21.919177,0 -102.380087,21.919156,0 -102.379696,21.919197,0 -102.379459,21.919288,0 -102.379188,21.919433,0 -102.379026,21.919568,0 -102.378881,21.919791,0 -102.378806,21.920034,0 -102.378737,21.920331,0 -102.378653,21.920706,0 -102.378599,21.920913,0 -102.378524,21.921115,0 -102.378438,21.921317,0 -102.378294,21.921511,0 -102.378195,21.921645,0 -102.378181,21.921723,0 -102.378229,21.921972,0 -102.378318,21.922161,0 -102.378399,21.922318,0 -102.378474,21.922434,0 -102.378555,21.922558,0 -102.378653,21.922679,0 -102.378602,21.922949,0 -102.378597,21.923229,0 -102.378538,21.923492,0 -102.378532,21.923715,0 -102.378499,21.923857,0 -102.378442,21.924077,0 -102.378408,21.924234,0 -102.378374,21.924331,0 -102.378173,21.924307,0 -102.377916,21.924249,0 -102.377676,21.924187,0 -102.37745,21.924104,0 -102.377189,21.923996,0 -102.376977,21.923909,0 -102.376738,21.923777,0 -102.376567,21.92365,0 -102.375221,21.92538,0 -102.369032,21.920828,0 -102.365804,21.918458,0 -102.361408,21.915219,0 -102.361336,21.91518,0 -102.358202,21.914664,0 -102.352716,21.913642,0 -102.34619,21.912485,0 -102.346224,21.913548,0 -102.343832,21.913553,0 -102.342991,21.913559,0 -102.342256,21.913577,0 -102.341368,21.913598,0 -102.338746,21.913655,0 -102.336657,21.913687,0 -102.335417,21.913717,0 -102.330803,21.913736,0 -102.3309,21.913989,0 -102.331066,21.914221,0 -102.331394,21.914793,0 -102.331595,21.914964,0 -102.332006,21.915178,0 -102.332788,21.915712,0 -102.333006,21.915433,0 -102.333082,21.915367,0 -102.333143,21.915467,0 -102.333185,21.915556,0 -102.333277,21.915668,0 -102.333435,21.915885,0 -102.33358,21.91612,0 -102.333609,21.916244,0 -102.333631,21.916407,0 -102.333653,21.916547,0 -102.333693,21.916747,0 -102.333868,21.917056,0 -102.334466,21.918003,0 -102.334859,21.918643,0 -102.335441,21.919686,0 -102.33601,21.920628,0 -102.336568,21.9216,0 -102.33694,21.922033,0 -102.337173,21.922292,0 -102.337308,21.922495,0 -102.337202,21.923204,0 -102.338196,21.925443,0 -102.339592,21.928973,0 -102.340338,21.930976,0 -102.340852,21.932214,0 -102.341151,21.933013,0 -102.341355,21.933764,0 -102.341449,21.93377,0 -102.341677,21.933988,0 -102.342078,21.935258,0 -102.342484,21.936474,0 -102.342808,21.937443,0 -102.343361,21.939131,0 -102.342246,21.939075,0 -102.342113,21.939073,0 -102.341787,21.939056,0 -102.341606,21.93904,0 -102.341375,21.939014,0 -102.341133,21.938985,0 -102.340883,21.938958,0 -102.340671,21.93893,0 -102.340526,21.938916,0 -102.340348,21.938886,0 -102.340099,21.93886,0 -102.339782,21.938807,0 -102.33898,21.938708,0 -102.338664,21.938685,0 -102.33834,21.93868,0 -102.337961,21.938667,0 -102.337682,21.938633,0 -102.337366,21.938628,0 -102.335567,21.938464,0 -102.335023,21.938437,0 -102.334648,21.938388,0 -102.33434,21.938342,0 -102.33386,21.938258,0 -102.333526,21.938232,0 -102.333221,21.938195,0 -102.332826,21.93822,0 -102.33255,21.938225,0 -102.332275,21.938182,0 -102.331958,21.938148,0 -102.331614,21.93811,0 -102.331298,21.938038,0 -102.330853,21.93796,0 -102.330505,21.937885,0 -102.330187,21.937862,0 -102.329839,21.937736,0 -102.329538,21.937691,0 -102.329342,21.937652,0 -102.329098,21.937575,0 -102.32885,21.93751,0 -102.328616,21.937486,0 -102.328381,21.937455,0 -102.328125,21.937451,0 -102.327915,21.937387,0 -102.327247,21.937234,0 -102.326681,21.937206,0 -102.326156,21.93711,0 -102.325004,21.937035,0 -102.324319,21.936412,0 -102.323647,21.936791,0 -102.319461,21.936154,0 -102.318516,21.936038,0 -102.314173,21.935323,0 -102.312726,21.935133,0 -102.308428,21.934435,0 -102.308397,21.937343,0 -102.308327,21.940046,0 -102.307835,21.939984,0 -102.307475,21.939926,0 -102.306515,21.939838,0 -102.305213,21.939711,0 -102.303904,21.939565,0 -102.302784,21.939465,0 -102.300263,21.939246,0 -102.296174,21.939578,0 -102.296016,21.937777,0 -102.290982,21.939077,0 
							</coordinates>
						</LinearRing>
					</outerBoundaryIs>
				</Polygon>
			</MultiGeometry>
		</Placemark>
		<Placemark>
			<name>01</name>
			<Snippet maxLines="0"></Snippet>
			<styleUrl>#PolyStyle00</styleUrl>
			<MultiGeometry>
				<Polygon>
					<tessellate>1</tessellate>
					<outerBoundaryIs>
						<LinearRing>
							<coordinates>
								-102.292571,21.900705,0 -102.288366,21.90183,0 -102.285903,21.902509,0 -102.285324,21.902667,0 -102.285033,21.902727,0 -102.284732,21.902729,0 -102.284443,21.902725,0 -102.284154,21.902663,0 -102.283885,21.902555,0 -102.283552,21.902374,0 -102.283319,21.902182,0 -102.282513,21.901185,0 -102.279727,21.8977,0 -102.278381,21.896071,0 -102.275482,21.892362,0 -102.273662,21.890089,0 -102.27348,21.889645,0 -102.273388,21.889204,0 -102.272592,21.884241,0 -102.272516,21.883789,0 -102.271549,21.878095,0 -102.270792,21.873643,0 -102.270682,21.872838,0 -102.270684,21.872404,0 -102.270825,21.871752,0 -102.270881,21.871575,0 -102.270929,21.871479,0 -102.2711,21.871123,0 -102.271217,21.870933,0 -102.271297,21.870833,0 -102.271544,21.870527,0 -102.271809,21.870238,0 -102.271976,21.870099,0 -102.272119,21.870009,0 -102.272449,21.8698,0 -102.272617,21.869717,0 -102.272768,21.869661,0 -102.273274,21.869475,0 -102.276982,21.868252,0 -102.281373,21.866763,0 -102.281984,21.866557,0 -102.283507,21.866381,0 -102.293715,21.865423,0 -102.294209,21.865435,0 -102.294511,21.865425,0 -102.295637,21.865637,0 -102.308856,21.867932,0 -102.309542,21.868178,0 -102.309976,21.86849,0 -102.310295,21.868906,0 -102.310493,21.869345,0 -102.311969,21.874248,0 -102.312141,21.876612,0 -102.312407,21.879577,0 -102.312447,21.880388,0 -102.312457,21.881356,0 -102.312503,21.88555,0 -102.312576,21.891767,0 -102.312538,21.892369,0 -102.312406,21.892933,0 -102.312206,21.893517,0 -102.311879,21.894109,0 -102.311486,21.894631,0 -102.310908,21.895197,0 -102.310264,21.895703,0 -102.309162,21.896098,0 -102.30466,21.897349,0 -102.298548,21.899032,0 -102.295965,21.899757,0 -102.292571,21.900705,0 
							</coordinates>
						</LinearRing>
					</outerBoundaryIs>
				</Polygon>
			</MultiGeometry>
		</Placemark>
		<Placemark>
			<name>01</name>
			<Snippet maxLines="0"></Snippet>
			<styleUrl>#PolyStyle00</styleUrl>
			<MultiGeometry>
				<Polygon>
					<tessellate>1</tessellate>
					<outerBoundaryIs>
						<LinearRing>
							<coordinates>
								-102.294209,21.865435,0 -102.293715,21.865423,0 -102.283507,21.866381,0 -102.281984,21.866557,0 -102.281373,21.866763,0 -102.276982,21.868252,0 -102.273274,21.869475,0 -102.272768,21.869661,0 -102.272617,21.869717,0 -102.272449,21.8698,0 -102.272119,21.870009,0 -102.271976,21.870099,0 -102.271809,21.870238,0 -102.271544,21.870527,0 -102.271297,21.870833,0 -102.271217,21.870933,0 -102.2711,21.871123,0 -102.270929,21.871479,0 -102.270881,21.871575,0 -102.270825,21.871752,0 -102.270684,21.872404,0 -102.270682,21.872838,0 -102.270792,21.873643,0 -102.271549,21.878095,0 -102.272516,21.883789,0 -102.270144,21.884124,0 -102.269942,21.884044,0 -102.265127,21.881297,0 -102.261977,21.87908,0 -102.255366,21.874285,0 -102.253319,21.872786,0 -102.251521,21.871641,0 -102.245816,21.86826,0 -102.244531,21.867773,0 -102.241634,21.866793,0 -102.239183,21.865971,0 -102.236904,21.865202,0 -102.23186,21.863449,0 -102.230091,21.862907,0 -102.227006,21.861905,0 -102.22594,21.861573,0 -102.224696,21.861239,0 -102.223512,21.860948,0 -102.222067,21.86066,0 -102.219912,21.86019,0 -102.217528,21.859455,0 -102.215264,21.858665,0 -102.216525,21.851268,0 -102.21788,21.841899,0 -102.21083,21.840721,0 -102.210926,21.840172,0 -102.211679,21.838641,0 -102.211887,21.838473,0 -102.21229,21.837162,0 -102.212738,21.83647,0 -102.21325,21.835896,0 -102.214325,21.83517,0 -102.214665,21.834699,0 -102.215139,21.833798,0 -102.215351,21.833122,0 -102.215715,21.832327,0 -102.217922,21.830902,0 -102.219256,21.829435,0 -102.207016,21.822275,0 -102.206076,21.827513,0 -102.20292,21.821141,0 -102.200366,21.816649,0 -102.200351,21.817444,0 -102.198941,21.817835,0 -102.197885,21.816427,0 -102.197783,21.815739,0 -102.195976,21.814158,0 -102.195226,21.813811,0 -102.19364,21.81243,0 -102.193093,21.81326,0 -102.192247,21.812506,0 -102.193876,21.811216,0 -102.193963,21.810206,0 -102.195149,21.809378,0 -102.196968,21.806755,0 -102.200587,21.802418,0 -102.201488,21.801314,0 -102.201682,21.800261,0 -102.204203,21.798803,0 -102.204609,21.799866,0 -102.205531,21.799665,0 -102.205815,21.801006,0 -102.208041,21.807531,0 -102.209287,21.807611,0 -102.210196,21.807825,0 -102.212842,21.806638,0 -102.214267,21.806425,0 -102.215304,21.805765,0 -102.21727,21.805537,0 -102.218762,21.804885,0 -102.220987,21.804812,0 -102.218498,21.796846,0 -102.222719,21.79689,0 -102.22123,21.792385,0 -102.221849,21.787729,0 -102.227806,21.787087,0 -102.239628,21.789058,0 -102.240024,21.783874,0 -102.242658,21.784169,0 -102.242955,21.781177,0 -102.248323,21.780488,0 -102.249204,21.776738,0 -102.243707,21.776089,0 -102.245791,21.77059,0 -102.247374,21.770147,0 -102.252257,21.766904,0 -102.252923,21.76696,0 -102.252925,21.766355,0 -102.253573,21.766274,0 -102.255125,21.764936,0 -102.257804,21.764809,0 -102.260907,21.76689,0 -102.261269,21.76667,0 -102.261073,21.766242,0 -102.261598,21.766107,0 -102.261726,21.766506,0 -102.263136,21.766583,0 -102.266846,21.766074,0 -102.267266,21.766352,0 -102.268435,21.769549,0 -102.273133,21.769461,0 -102.279464,21.773608,0 -102.280739,21.781038,0 -102.281958,21.783951,0 -102.280732,21.784516,0 -102.282722,21.79771,0 -102.28357,21.801875,0 -102.284068,21.805094,0 -102.286463,21.819444,0 -102.28756,21.826032,0 -102.287964,21.828214,0 -102.290715,21.844825,0 -102.293001,21.858092,0 -102.294209,21.865435,0 
							</coordinates>
						</LinearRing>
					</outerBoundaryIs>
				</Polygon>
			</MultiGeometry>
		</Placemark>
		<Placemark>
			<name>01</name>
			<Snippet maxLines="0"></Snippet>
			<styleUrl>#PolyStyle00</styleUrl>
			<MultiGeometry>
				<Polygon>
					<tessellate>1</tessellate>
					<outerBoundaryIs>
						<LinearRing>
							<coordinates>
								-102.432461,21.85781,0 -102.430938,21.856879,0 -102.429746,21.855389,0 -102.427351,21.853548,0 -102.424413,21.853394,0 -102.423272,21.852826,0 -102.422944,21.851665,0 -102.423069,21.850611,0 -102.422815,21.850191,0 -102.422063,21.849523,0 -102.419729,21.84639,0 -102.420055,21.843777,0 -102.417937,21.841604,0 -102.416723,21.841323,0 -102.409697,21.841623,0 -102.409968,21.840544,0 -102.409248,21.83861,0 -102.408077,21.838452,0 -102.407216,21.837969,0 -102.40659,21.837805,0 -102.404487,21.83807,0 -102.402435,21.83765,0 -102.402142,21.83779,0 -102.400476,21.83798,0 -102.398349,21.837964,0 -102.39784,21.838038,0 -102.397643,21.838125,0 -102.396519,21.838089,0 -102.392612,21.83696,0 -102.39095,21.835383,0 -102.390627,21.835035,0 -102.390508,21.834906,0 -102.390407,21.834923,0 -102.389088,21.835137,0 -102.388606,21.835039,0 -102.387864,21.834386,0 -102.386667,21.833893,0 -102.386141,21.832878,0 -102.384021,21.830913,0 -102.383291,21.829059,0 -102.383315,21.828789,0 -102.383433,21.828664,0 -102.382684,21.828391,0 -102.381384,21.827594,0 -102.379269,21.827948,0 -102.378564,21.827696,0 -102.378292,21.826958,0 -102.377056,21.825241,0 -102.375897,21.824627,0 -102.374781,21.824356,0 -102.373605,21.823597,0 -102.372935,21.823758,0 -102.372241,21.823666,0 -102.371973,21.823517,0 -102.371897,21.822626,0 -102.371883,21.822457,0 -102.37176,21.822448,0 -102.370892,21.82238,0 -102.370716,21.822366,0 -102.370705,21.822504,0 -102.370643,21.823297,0 -102.370776,21.823949,0 -102.370692,21.824282,0 -102.370489,21.824288,0 -102.370367,21.823857,0 -102.37008,21.823378,0 -102.370009,21.82252,0 -102.369723,21.821757,0 -102.368465,21.821294,0 -102.367392,21.821304,0 -102.366925,21.820936,0 -102.366155,21.820743,0 -102.363225,21.819721,0 -102.362877,21.819679,0 -102.362287,21.819191,0 -102.361761,21.818867,0 -102.361376,21.818807,0 -102.359265,21.817888,0 -102.358756,21.817837,0 -102.358329,21.817966,0 -102.358063,21.818077,0 -102.35681,21.818932,0 -102.355561,21.819535,0 -102.354151,21.819982,0 -102.352095,21.820346,0 -102.351697,21.820421,0 -102.351505,21.820355,0 -102.349654,21.820569,0 -102.348891,21.820529,0 -102.348549,21.820226,0 -102.349659,21.819765,0 -102.351098,21.818841,0 -102.353832,21.818458,0 -102.34945,21.81386,0 -102.331879,21.794879,0 -102.330834,21.792289,0 -102.330269,21.792009,0 -102.330141,21.791248,0 -102.330182,21.789069,0 -102.329615,21.78699,0 -102.330171,21.786139,0 -102.330125,21.785479,0 -102.329006,21.785337,0 -102.327876,21.784777,0 -102.326676,21.784893,0 -102.326231,21.785437,0 -102.325577,21.785246,0 -102.323856,21.785274,0 -102.322555,21.785073,0 -102.322044,21.784486,0 -102.320444,21.785273,0 -102.320041,21.785086,0 -102.319119,21.785838,0 -102.31819,21.785934,0 -102.317136,21.786476,0 -102.316432,21.787413,0 -102.315462,21.787632,0 -102.316441,21.779478,0 -102.318022,21.768761,0 -102.30357,21.759554,0 -102.309181,21.739083,0 -102.307439,21.736259,0 -102.307142,21.734186,0 -102.324439,21.74163,0 -102.325328,21.737959,0 -102.326553,21.738275,0 -102.327268,21.735427,0 -102.328211,21.73565,0 -102.33151,21.721044,0 -102.339815,21.722895,0 -102.340953,21.717093,0 -102.353075,21.718585,0 -102.353837,21.708303,0 -102.363016,21.714667,0 -102.369128,21.716311,0 -102.380655,21.718448,0 -102.381732,21.719984,0 -102.386873,21.721749,0 -102.388842,21.722159,0 -102.390586,21.722078,0 -102.391979,21.721306,0 -102.396264,21.717911,0 -102.404375,21.696071,0 -102.399691,21.697135,0 -102.397775,21.688686,0 -102.395393,21.685527,0 -102.395908,21.683407,0 -102.397025,21.682079,0 -102.399497,21.677647,0 -102.40083,21.674176,0 -102.401305,21.672717,0 -102.40183,21.669626,0 -102.402056,21.669498,0 -102.402326,21.669331,0 -102.402569,21.669008,0 -102.402857,21.668568,0 -102.403446,21.670868,0 -102.41442,21.673897,0 -102.416686,21.674334,0 -102.416823,21.673999,0 -102.41689,21.673605,0 -102.416962,21.673363,0 -102.417118,21.672988,0 -102.417239,21.67262,0 -102.417339,21.672283,0 -102.417454,21.672098,0 -102.417575,21.671959,0 -102.417706,21.671819,0 -102.417837,21.671548,0 -102.418065,21.671229,0 -102.418069,21.671035,0 -102.418123,21.670912,0 -102.43645,21.673239,0 -102.443049,21.673591,0 -102.443031,21.672979,0 -102.444494,21.673063,0 -102.444593,21.672685,0 -102.450778,21.672277,0 -102.451172,21.672725,0 -102.451068,21.673209,0 -102.451009,21.673463,0 -102.451044,21.673807,0 -102.450957,21.674099,0 -102.450894,21.674583,0 -102.450912,21.675105,0 -102.451012,21.675641,0 -102.451165,21.676269,0 -102.451292,21.676808,0 -102.451569,21.677372,0 -102.451833,21.677848,0 -102.452153,21.678518,0 -102.452603,21.679315,0 -102.452839,21.679802,0 -102.453133,21.68019,0 -102.453536,21.680476,0 -102.453966,21.680812,0 -102.454153,21.681045,0 -102.454198,21.681554,0 -102.454131,21.682293,0 -102.454068,21.6828,0 -102.45414,21.683311,0 -102.45435,21.683786,0 -102.454453,21.684142,0 -102.454718,21.68458,0 -102.454817,21.685116,0 -102.454949,21.685373,0 -102.454968,21.685881,0 -102.454906,21.686289,0 -102.454628,21.686589,0 -102.454189,21.686736,0 -102.453725,21.686806,0 -102.453017,21.686743,0 -102.452119,21.686652,0 -102.45144,21.686516,0 -102.450898,21.686406,0 -102.450322,21.686575,0 -102.449498,21.686944,0 -102.448725,21.687467,0 -102.448143,21.688043,0 -102.447724,21.688623,0 -102.447552,21.689103,0 -102.447515,21.689663,0 -102.44764,21.690276,0 -102.447895,21.691298,0 -102.448069,21.692244,0 -102.448165,21.692984,0 -102.448206,21.693747,0 -102.448137,21.694586,0 -102.448014,21.69518,0 -102.448092,21.697312,0 -102.454772,21.697979,0 -102.463817,21.700183,0 -102.477037,21.695545,0 -102.476688,21.702104,0 -102.480092,21.703273,0 -102.48018,21.703534,0 -102.484657,21.704958,0 -102.485841,21.704884,0 -102.487619,21.706039,0 -102.509287,21.716918,0 -102.542306,21.732409,0 -102.541154,21.735716,0 -102.546838,21.737559,0 -102.548944,21.738638,0 -102.550185,21.73948,0 -102.551646,21.742248,0 -102.554912,21.743565,0 -102.555958,21.743576,0 -102.557585,21.743596,0 -102.558862,21.743721,0 -102.562835,21.744429,0 -102.567355,21.744528,0 -102.569494,21.742945,0 -102.571343,21.743821,0 -102.572264,21.742588,0 -102.579118,21.740718,0 -102.578614,21.743363,0 -102.595165,21.744079,0 -102.595403,21.744922,0 -102.595956,21.745858,0 -102.595663,21.746501,0 -102.595763,21.746922,0 -102.59657,21.747636,0 -102.597968,21.74811,0 -102.59846,21.748587,0 -102.598443,21.749523,0 -102.598346,21.750039,0 -102.598504,21.750294,0 -102.597621,21.750848,0 -102.597806,21.753731,0 -102.598358,21.754041,0 -102.598789,21.753745,0 -102.598793,21.755142,0 -102.600649,21.755183,0 -102.601492,21.7618,0 -102.600843,21.76935,0 -102.601141,21.777835,0 -102.60079,21.779231,0 -102.601305,21.780699,0 -102.599872,21.789096,0 -102.597944,21.78912,0 -102.596608,21.789342,0 -102.595558,21.789907,0 -102.595671,21.791439,0 -102.594114,21.790725,0 -102.594235,21.791919,0 -102.592379,21.79221,0 -102.591532,21.79283,0 -102.590474,21.7946,0 -102.590381,21.794795,0 -102.590071,21.795045,0 -102.589935,21.7951,0 -102.589758,21.795147,0 -102.589635,21.795161,0 -102.589495,21.795127,0 -102.589393,21.795087,0 -102.589192,21.795319,0 -102.588925,21.795514,0 -102.588713,21.795558,0 -102.588484,21.795555,0 -102.58822,21.795569,0 -102.588045,21.795501,0 -102.587837,21.795349,0 -102.587522,21.795214,0 -102.587185,21.794976,0 -102.586767,21.795054,0 -102.586326,21.795131,0 -102.586009,21.795158,0 -102.585798,21.795123,0 -102.585517,21.795094,0 -102.585387,21.795462,0 -102.585189,21.795787,0 -102.585043,21.796033,0 -102.584793,21.796275,0 -102.584543,21.796486,0 -102.584243,21.796513,0 -102.583751,21.796456,0 -102.58333,21.796335,0 -102.582947,21.796133,0 -102.582714,21.795884,0 -102.582491,21.795862,0 -102.582428,21.796162,0 -102.582321,21.796241,0 -102.582055,21.796321,0 -102.581737,21.796382,0 -102.581438,21.796377,0 -102.581084,21.796471,0 -102.580696,21.796531,0 -102.580218,21.796671,0 -102.579919,21.7967,0 -102.579671,21.796762,0 -102.579669,21.796911,0 -102.579366,21.797087,0 -102.57889,21.79713,0 -102.57852,21.797174,0 -102.578402,21.79715,0 -102.57818,21.797465,0 -102.577985,21.797559,0 -102.577773,21.797612,0 -102.577767,21.797967,0 -102.577707,21.798379,0 -102.577597,21.798673,0 -102.577488,21.798836,0 -102.57715,21.798888,0 -102.577019,21.798834,0 -102.57686,21.799064,0 -102.576628,21.799092,0 -102.576452,21.799072,0 -102.576347,21.799038,0 -102.576241,21.799037,0 -102.576101,21.799001,0 -102.575892,21.798899,0 -102.575806,21.798751,0 -102.575649,21.798523,0 -102.575472,21.798761,0 -102.575239,21.799004,0 -102.575026,21.799084,0 -102.574919,21.799164,0 -102.574672,21.79921,0 -102.574372,21.79924,0 -102.574125,21.799236,0 -102.573964,21.798796,0 -102.573159,21.799055,0 -102.572591,21.798798,0 -102.572122,21.798873,0 -102.572052,21.799041,0 -102.571944,21.79917,0 -102.57182,21.799202,0 -102.57138,21.799196,0 -102.571028,21.79919,0 -102.570602,21.799421,0 -102.570595,21.799857,0 -102.570608,21.800105,0 -102.570554,21.800764,0 -102.57042,21.801371,0 -102.570215,21.802025,0 -102.570123,21.802337,0 -102.56998,21.802383,0 -102.56977,21.802332,0 -102.569492,21.802129,0 -102.569001,21.801991,0 -102.568578,21.802066,0 -102.568311,21.802227,0 -102.567883,21.802535,0 -102.56758,21.802726,0 -102.567279,21.802853,0 -102.567103,21.802868,0 -102.566884,21.80275,0 -102.566676,21.802582,0 -102.566223,21.80228,0 -102.566032,21.802146,0 -102.565698,21.802092,0 -102.565224,21.802035,0 -102.56468,21.801961,0 -102.563728,21.801981,0 -102.563124,21.802688,0 -102.562441,21.803305,0 -102.562225,21.803566,0 -102.561903,21.80376,0 -102.561301,21.803751,0 -102.560596,21.80361,0 -102.560063,21.803692,0 -102.55974,21.804026,0 -102.558819,21.804046,0 -102.558293,21.803806,0 -102.557731,21.803567,0 -102.557166,21.803491,0 -102.556651,21.803486,0 -102.555873,21.803506,0 -102.555185,21.80348,0 -102.554737,21.803473,0 -102.554188,21.80356,0 -102.553687,21.803738,0 -102.553311,21.803917,0 -102.552861,21.804028,0 -102.552414,21.803974,0 -102.551917,21.803921,0 -102.551645,21.803823,0 -102.551598,21.803659,0 -102.551628,21.80352,0 -102.552162,21.802776,0 -102.55241,21.802116,0 -102.552369,21.801718,0 -102.551658,21.801753,0 -102.550703,21.802181,0 -102.549607,21.802562,0 -102.548273,21.802985,0 -102.54723,21.803014,0 -102.546661,21.803049,0 -102.546141,21.802953,0 -102.545903,21.802455,0 -102.545668,21.802321,0 -102.544811,21.803155,0 -102.544562,21.803814,0 -102.543939,21.804291,0 -102.543177,21.804458,0 -102.542559,21.804579,0 -102.54193,21.805367,0 -102.541902,21.806558,0 -102.541634,21.806856,0 -102.54152,21.807173,0 -102.541392,21.807823,0 -102.540836,21.808068,0 -102.539803,21.807768,0 -102.538984,21.808115,0 -102.538549,21.808596,0 -102.538115,21.809032,0 -102.537206,21.809549,0 -102.536163,21.809578,0 -102.535499,21.809611,0 -102.534967,21.810222,0 -102.534435,21.810877,0 -102.533907,21.811224,0 -102.533196,21.811258,0 -102.532718,21.811473,0 -102.532381,21.811777,0 -102.531806,21.812165,0 -102.530996,21.81242,0 -102.530471,21.812676,0 -102.529662,21.812797,0 -102.529093,21.812834,0 -102.52824,21.812864,0 -102.527578,21.812766,0 -102.519587,21.809163,0 -102.519533,21.809625,0 -102.519507,21.810065,0 -102.519369,21.810415,0 -102.519194,21.810712,0 -102.519001,21.810989,0 -102.518942,21.811131,0 -102.518806,21.811357,0 -102.518706,21.811689,0 -102.518625,21.812022,0 -102.518469,21.812317,0 -102.518198,21.812772,0 -102.51804,21.813243,0 -102.517921,21.813576,0 -102.517623,21.814282,0 -102.517368,21.814876,0 -102.517042,21.815357,0 -102.516798,21.81575,0 -102.516409,21.816275,0 -102.515458,21.816482,0 -102.514844,21.816384,0 -102.514328,21.816067,0 -102.5141,21.815579,0 -102.514059,21.815179,0 -102.513874,21.814912,0 -102.513215,21.814681,0 -102.512837,21.814587,0 -102.512316,21.814534,0 -102.511885,21.814837,0 -102.51131,21.815225,0 -102.510834,21.815308,0 -102.510455,21.815303,0 -102.510171,21.815298,0 -102.510084,21.814855,0 -102.509714,21.814319,0 -102.509578,21.813962,0 -102.509202,21.81378,0 -102.508111,21.813502,0 -102.50784,21.813767,0 -102.507267,21.81404,0 -102.505885,21.814331,0 -102.505427,21.814626,0 -102.505089,21.815093,0 -102.504402,21.815836,0 -102.503694,21.815521,0 -102.503049,21.815238,0 -102.502111,21.814693,0 -102.50169,21.814378,0 -102.501037,21.813792,0 -102.500615,21.813522,0 -102.500091,21.813645,0 -102.499565,21.813948,0 -102.499134,21.814206,0 -102.499032,21.814602,0 -102.498996,21.81526,0 -102.498169,21.815422,0 -102.497545,21.815642,0 -102.496915,21.815976,0 -102.4963,21.816375,0 -102.495706,21.816504,0 -102.488243,21.816677,0 -102.487046,21.816681,0 -102.47414,21.817127,0 -102.47614,21.814386,0 -102.473684,21.81445,0 -102.47225,21.814467,0 -102.471309,21.814452,0 -102.470559,21.814493,0 -102.469562,21.814516,0 -102.468838,21.814554,0 -102.468271,21.814559,0 -102.468064,21.814531,0 -102.467549,21.814562,0 -102.467216,21.814484,0 -102.466944,21.814444,0 -102.46651,21.814478,0 -102.466252,21.814591,0 -102.461803,21.814677,0 -102.461815,21.816717,0 -102.461338,21.817434,0 -102.456695,21.817656,0 -102.456309,21.817917,0 -102.455148,21.820059,0 -102.454644,21.820803,0 -102.453348,21.823863,0 -102.452324,21.826093,0 -102.451433,21.827813,0 -102.450216,21.830203,0 -102.44987,21.830502,0 -102.449458,21.830674,0 -102.449019,21.830755,0 -102.44861,21.830776,0 -102.448197,21.830973,0 -102.447501,21.831,0 -102.446423,21.831534,0 -102.445625,21.831878,0 -102.445431,21.832081,0 -102.444993,21.832074,0 -102.444772,21.832299,0 -102.444639,21.832642,0 -102.444421,21.832815,0 -102.444244,21.832904,0 -102.443968,21.832961,0 -102.443607,21.833312,0 -102.443385,21.833564,0 -102.443082,21.833699,0 -102.442702,21.83374,0 -102.442275,21.834379,0 -102.442094,21.834566,0 -102.44182,21.834677,0 -102.441433,21.834921,0 -102.441496,21.83522,0 -102.441245,21.835496,0 -102.441078,21.835697,0 -102.441019,21.835951,0 -102.440727,21.836265,0 -102.440435,21.836551,0 -102.440228,21.836715,0 -102.440035,21.8368,0 -102.439935,21.837054,0 -102.439713,21.837228,0 -102.439438,21.837403,0 -102.439395,21.837479,0 -102.438497,21.838708,0 -102.438341,21.839101,0 -102.438224,21.83948,0 -102.438127,21.839581,0 -102.437852,21.839705,0 -102.437466,21.839965,0 -102.43731,21.840256,0 -102.437101,21.840508,0 -102.436973,21.840786,0 -102.436832,21.841064,0 -102.435983,21.842743,0 -102.435529,21.843594,0 -102.435261,21.844048,0 -102.434957,21.844298,0 -102.434614,21.844369,0 -102.434093,21.844515,0 -102.433695,21.844687,0 -102.433558,21.845409,0 -102.434077,21.845393,0 -102.434472,21.845448,0 -102.434738,21.845893,0 -102.43484,21.846289,0 -102.435007,21.846852,0 -102.435151,21.847235,0 -102.435281,21.847569,0 -102.435273,21.848027,0 -102.435402,21.848476,0 -102.435505,21.848807,0 -102.435591,21.849319,0 -102.435543,21.849713,0 -102.435525,21.849954,0 -102.43547,21.850371,0 -102.435301,21.850542,0 -102.435183,21.850885,0 -102.435031,21.851075,0 -102.434821,21.851383,0 -102.43445,21.851377,0 -102.434148,21.851206,0 -102.433668,21.851453,0 -102.433423,21.851795,0 -102.433143,21.851842,0 -102.432883,21.851838,0 -102.432623,21.85185,0 -102.432271,21.851811,0 -102.432248,21.852052,0 -102.432097,21.852223,0 -102.432036,21.852482,0 -102.432275,21.852623,0 -102.432493,21.852922,0 -102.432488,21.853216,0 -102.432633,21.853392,0 -102.432461,21.85363,0 -102.432454,21.854048,0 -102.432576,21.854465,0 -102.432969,21.856399,0 -102.432622,21.85712,0 -102.432461,21.85781,0 
							</coordinates>
						</LinearRing>
					</outerBoundaryIs>
				</Polygon>
			</MultiGeometry>
		</Placemark>
		<Placemark>
			<name>01</name>
			<Snippet maxLines="0"></Snippet>
			<styleUrl>#PolyStyle00</styleUrl>
			<MultiGeometry>
				<Polygon>
					<tessellate>1</tessellate>
					<outerBoundaryIs>
						<LinearRing>
							<coordinates>
								-102.316441,21.779478,0 -102.310711,21.77834,0 -102.299989,21.777996,0 -102.299825,21.777988,0 -102.298718,21.778765,0 -102.298524,21.778816,0 -102.298302,21.778803,0 -102.298156,21.778855,0 -102.298115,21.778962,0 -102.298,21.779421,0 -102.297921,21.779555,0 -102.297309,21.77968,0 -102.295109,21.779997,0 -102.293841,21.780102,0 -102.288956,21.781367,0 -102.286411,21.782048,0 -102.285546,21.782304,0 -102.285292,21.782426,0 -102.28365,21.78341,0 -102.283522,21.783535,0 -102.283433,21.783651,0 -102.283371,21.783839,0 -102.283273,21.783937,0 -102.283058,21.784015,0 -102.282865,21.784029,0 -102.282586,21.783953,0 -102.282345,21.783904,0 -102.282172,21.783892,0 -102.281958,21.783951,0 -102.280739,21.781038,0 -102.279464,21.773608,0 -102.273133,21.769461,0 -102.268435,21.769549,0 -102.267266,21.766352,0 -102.266846,21.766074,0 -102.263136,21.766583,0 -102.261726,21.766506,0 -102.261598,21.766107,0 -102.261073,21.766242,0 -102.261269,21.76667,0 -102.260907,21.76689,0 -102.257804,21.764809,0 -102.255125,21.764936,0 -102.253573,21.766274,0 -102.252925,21.766355,0 -102.252923,21.76696,0 -102.252257,21.766904,0 -102.247374,21.770147,0 -102.245791,21.77059,0 -102.243707,21.776089,0 -102.249204,21.776738,0 -102.248323,21.780488,0 -102.242955,21.781177,0 -102.242658,21.784169,0 -102.240024,21.783874,0 -102.239628,21.789058,0 -102.227806,21.787087,0 -102.221849,21.787729,0 -102.22123,21.792385,0 -102.222719,21.79689,0 -102.218498,21.796846,0 -102.211724,21.798828,0 -102.210608,21.797018,0 -102.21048,21.796582,0 -102.20994,21.794781,0 -102.20885,21.792545,0 -102.20697,21.787575,0 -102.208648,21.776405,0 -102.205566,21.774857,0 -102.198556,21.772965,0 -102.199338,21.763181,0 -102.19467,21.762646,0 -102.19479,21.762089,0 -102.189904,21.761548,0 -102.19064,21.754447,0 -102.21333,21.757067,0 -102.214254,21.754287,0 -102.214784,21.749417,0 -102.21649,21.745584,0 -102.215642,21.744401,0 -102.219294,21.718613,0 -102.218077,21.718236,0 -102.216531,21.715136,0 -102.21347,21.715229,0 -102.212195,21.715458,0 -102.210154,21.716281,0 -102.208359,21.716867,0 -102.204801,21.715514,0 -102.205808,21.707892,0 -102.206462,21.702733,0 -102.206789,21.700114,0 -102.208175,21.693674,0 -102.215659,21.695025,0 -102.214149,21.686501,0 -102.216998,21.684935,0 -102.218292,21.684503,0 -102.219422,21.681963,0 -102.221035,21.680629,0 -102.219652,21.678566,0 -102.218597,21.678383,0 -102.218107,21.6777,0 -102.220996,21.673355,0 -102.221882,21.672505,0 -102.220601,21.671644,0 -102.224936,21.661236,0 -102.225898,21.661234,0 -102.227567,21.660463,0 -102.226564,21.654644,0 -102.233653,21.654643,0 -102.234065,21.653413,0 -102.238975,21.655136,0 -102.243747,21.655411,0 -102.295583,21.653183,0 -102.310173,21.626642,0 -102.317543,21.628434,0 -102.321118,21.629974,0 -102.325628,21.622367,0 -102.337505,21.627622,0 -102.353905,21.635779,0 -102.353981,21.635981,0 -102.360634,21.639547,0 -102.366707,21.64262,0 -102.369581,21.650603,0 -102.380287,21.652368,0 -102.381016,21.651362,0 -102.385636,21.652141,0 -102.384943,21.653282,0 -102.396401,21.656434,0 -102.394146,21.668323,0 -102.400773,21.670126,0 -102.400869,21.670132,0 -102.400911,21.670094,0 -102.40097,21.669937,0 -102.401042,21.669835,0 -102.401141,21.669784,0 -102.401324,21.669749,0 -102.401535,21.669711,0 -102.40183,21.669626,0 -102.401305,21.672717,0 -102.40083,21.674176,0 -102.399497,21.677647,0 -102.397025,21.682079,0 -102.395908,21.683407,0 -102.395393,21.685527,0 -102.397775,21.688686,0 -102.399691,21.697135,0 -102.404375,21.696071,0 -102.396264,21.717911,0 -102.391979,21.721306,0 -102.390586,21.722078,0 -102.388842,21.722159,0 -102.386873,21.721749,0 -102.381732,21.719984,0 -102.380655,21.718448,0 -102.369128,21.716311,0 -102.363016,21.714667,0 -102.353837,21.708303,0 -102.353075,21.718585,0 -102.340953,21.717093,0 -102.339815,21.722895,0 -102.33151,21.721044,0 -102.328211,21.73565,0 -102.327268,21.735427,0 -102.326553,21.738275,0 -102.325328,21.737959,0 -102.324439,21.74163,0 -102.307142,21.734186,0 -102.307439,21.736259,0 -102.309181,21.739083,0 -102.30357,21.759554,0 -102.318022,21.768761,0 -102.316441,21.779478,0 
							</coordinates>
						</LinearRing>
					</outerBoundaryIs>
				</Polygon>
			</MultiGeometry>
		</Placemark>
		<Placemark>
			<name>01</name>
			<Snippet maxLines="0"></Snippet>
			<styleUrl>#PolyStyle00</styleUrl>
			<MultiGeometry>
				<Polygon>
					<tessellate>1</tessellate>
					<outerBoundaryIs>
						<LinearRing>
							<coordinates>
								-102.311969,21.874248,0 -102.310493,21.869345,0 -102.310295,21.868906,0 -102.309976,21.86849,0 -102.309542,21.868178,0 -102.308856,21.867932,0 -102.295637,21.865637,0 -102.294511,21.865425,0 -102.294209,21.865435,0 -102.293001,21.858092,0 -102.290715,21.844825,0 -102.287964,21.828214,0 -102.28756,21.826032,0 -102.286463,21.819444,0 -102.284068,21.805094,0 -102.28357,21.801875,0 -102.282722,21.79771,0 -102.280732,21.784516,0 -102.281958,21.783951,0 -102.282172,21.783892,0 -102.282345,21.783904,0 -102.282586,21.783953,0 -102.282865,21.784029,0 -102.283058,21.784015,0 -102.283273,21.783937,0 -102.283371,21.783839,0 -102.283433,21.783651,0 -102.283522,21.783535,0 -102.28365,21.78341,0 -102.285292,21.782426,0 -102.285546,21.782304,0 -102.286411,21.782048,0 -102.288956,21.781367,0 -102.293841,21.780102,0 -102.295109,21.779997,0 -102.297309,21.77968,0 -102.297921,21.779555,0 -102.298,21.779421,0 -102.298115,21.778962,0 -102.298156,21.778855,0 -102.298302,21.778803,0 -102.298524,21.778816,0 -102.298718,21.778765,0 -102.299825,21.777988,0 -102.299989,21.777996,0 -102.310711,21.77834,0 -102.316441,21.779478,0 -102.315462,21.787632,0 -102.316432,21.787413,0 -102.317136,21.786476,0 -102.31819,21.785934,0 -102.319119,21.785838,0 -102.320041,21.785086,0 -102.320444,21.785273,0 -102.322044,21.784486,0 -102.322555,21.785073,0 -102.323856,21.785274,0 -102.325577,21.785246,0 -102.326231,21.785437,0 -102.326676,21.784893,0 -102.327876,21.784777,0 -102.329006,21.785337,0 -102.330125,21.785479,0 -102.330171,21.786139,0 -102.329615,21.78699,0 -102.330182,21.789069,0 -102.330141,21.791248,0 -102.330269,21.792009,0 -102.330834,21.792289,0 -102.331879,21.794879,0 -102.34945,21.81386,0 -102.353832,21.818458,0 -102.351098,21.818841,0 -102.349659,21.819765,0 -102.348549,21.820226,0 -102.348891,21.820529,0 -102.349654,21.820569,0 -102.351505,21.820355,0 -102.351697,21.820421,0 -102.352095,21.820346,0 -102.354151,21.819982,0 -102.355561,21.819535,0 -102.35681,21.818932,0 -102.358063,21.818077,0 -102.358329,21.817966,0 -102.358756,21.817837,0 -102.359265,21.817888,0 -102.361376,21.818807,0 -102.361761,21.818867,0 -102.362287,21.819191,0 -102.362877,21.819679,0 -102.363225,21.819721,0 -102.366155,21.820743,0 -102.366925,21.820936,0 -102.367392,21.821304,0 -102.368465,21.821294,0 -102.369723,21.821757,0 -102.370009,21.82252,0 -102.37008,21.823378,0 -102.370367,21.823857,0 -102.370489,21.824288,0 -102.370692,21.824282,0 -102.370776,21.823949,0 -102.370643,21.823297,0 -102.370705,21.822504,0 -102.370716,21.822366,0 -102.370892,21.82238,0 -102.37176,21.822448,0 -102.371883,21.822457,0 -102.371897,21.822626,0 -102.371973,21.823517,0 -102.372241,21.823666,0 -102.372935,21.823758,0 -102.373605,21.823597,0 -102.374781,21.824356,0 -102.375897,21.824627,0 -102.377056,21.825241,0 -102.378292,21.826958,0 -102.378564,21.827696,0 -102.379269,21.827948,0 -102.381384,21.827594,0 -102.382684,21.828391,0 -102.383433,21.828664,0 -102.383315,21.828789,0 -102.383291,21.829059,0 -102.384021,21.830913,0 -102.386141,21.832878,0 -102.386667,21.833893,0 -102.387864,21.834386,0 -102.388606,21.835039,0 -102.389088,21.835137,0 -102.390407,21.834923,0 -102.390508,21.834906,0 -102.390627,21.835035,0 -102.39095,21.835383,0 -102.392612,21.83696,0 -102.396519,21.838089,0 -102.397643,21.838125,0 -102.39784,21.838038,0 -102.398349,21.837964,0 -102.400476,21.83798,0 -102.402142,21.83779,0 -102.402435,21.83765,0 -102.404487,21.83807,0 -102.40659,21.837805,0 -102.407216,21.837969,0 -102.408077,21.838452,0 -102.409248,21.83861,0 -102.409968,21.840544,0 -102.409697,21.841623,0 -102.416723,21.841323,0 -102.417937,21.841604,0 -102.420055,21.843777,0 -102.419729,21.84639,0 -102.422063,21.849523,0 -102.422815,21.850191,0 -102.423069,21.850611,0 -102.422944,21.851665,0 -102.423272,21.852826,0 -102.424413,21.853394,0 -102.427351,21.853548,0 -102.429746,21.855389,0 -102.430938,21.856879,0 -102.432461,21.85781,0 -102.432945,21.858789,0 -102.432184,21.859833,0 -102.431858,21.86032,0 -102.431852,21.860647,0 -102.431867,21.860873,0 -102.431771,21.861063,0 -102.431542,21.861387,0 -102.431572,21.861787,0 -102.431693,21.86229,0 -102.431853,21.862708,0 -102.431701,21.862913,0 -102.431563,21.863344,0 -102.431613,21.863656,0 -102.431717,21.864058,0 -102.431526,21.86433,0 -102.431387,21.864849,0 -102.431197,21.865122,0 -102.43095,21.865447,0 -102.43091,21.86562,0 -102.430816,21.865687,0 -102.430739,21.865789,0 -102.430442,21.865839,0 -102.430271,21.866044,0 -102.429971,21.866177,0 -102.42923,21.866131,0 -102.429006,21.866196,0 -102.428737,21.86674,0 -102.428711,21.867119,0 -102.428725,21.867396,0 -102.428887,21.867659,0 -102.428865,21.86785,0 -102.42886,21.86811,0 -102.42891,21.868489,0 -102.428902,21.868907,0 -102.428727,21.869319,0 -102.428631,21.869508,0 -102.428494,21.869939,0 -102.428262,21.870402,0 -102.427961,21.870639,0 -102.427699,21.870775,0 -102.427269,21.87094,0 -102.426672,21.871104,0 -102.425826,21.87175,0 -102.425617,21.872882,0 -102.425705,21.873177,0 -102.425494,21.873555,0 -102.425336,21.87409,0 -102.425016,21.874308,0 -102.424251,21.874522,0 -102.42346,21.87564,0 -102.423018,21.8781,0 -102.421173,21.878512,0 -102.416968,21.881709,0 -102.418813,21.883769,0 -102.41492,21.889173,0 -102.413393,21.891123,0 -102.412662,21.891559,0 -102.412568,21.891643,0 -102.411951,21.891859,0 -102.411578,21.891991,0 -102.409878,21.892519,0 -102.409058,21.892696,0 -102.406728,21.893251,0 -102.398402,21.891052,0 -102.368632,21.883058,0 -102.364732,21.88205,0 -102.356601,21.879814,0 -102.347817,21.877481,0 -102.341906,21.875894,0 -102.339847,21.875346,0 -102.336747,21.874549,0 -102.333736,21.873772,0 -102.32883,21.872458,0 -102.327669,21.87215,0 -102.324262,21.871632,0 -102.322257,21.871374,0 -102.320917,21.871201,0 -102.31953,21.87125,0 -102.318631,21.871592,0 -102.311969,21.874248,0 
							</coordinates>
						</LinearRing>
					</outerBoundaryIs>
				</Polygon>
			</MultiGeometry>
		</Placemark>
	</Folder>
</Document>
</kml>
